waveforms/add.s.vcd
$date
2022-10-10T08:25+0000
$end
$version
0.2
$end
$comment

$end
$timescale 1ns  $end
$scope module Tile $end
 $var wire 1 5 io_regsWriteEnable $end
 $var wire 32 6 io_regsReadData $end
 $var wire 32 J io_IMEMAddress $end
 $var wire 1 Y io_regsDeviceWriteEnable $end
 $var wire 32 } io_DMEMAddress $end
 $var wire 32 "I io_DMEMWriteData $end
 $var wire 1 "M CPU $end
 $var wire 32 "U io_regsDeviceWriteData $end
 $var wire 5 "Y io_regsDeviceWriteAddress $end
 $var wire 1 "h clock $end
 $var wire 32 "n io_currentPC $end
 $var wire 5 "q io_regsAddress $end
 $var wire 1 #$ io_DMEMWriteEnable $end
 $var wire 32 #% io_memDeviceWriteAddress $end
 $var wire 32 #C io_IMEMWriteData $end
 $var wire 32 #E io_memDeviceWriteData $end
 $var wire 32 #_ io_DMEMReadData $end
 $var wire 1 #c reset $end
 $var wire 1 #k io_setup $end
 $var wire 1 #t io_memDeviceWriteEnable $end
 $var wire 32 $) io_regsWriteData $end
  $scope module CPU.EX $end
  $upscope $end
  $scope module CPU.MEM $end
  $upscope $end
  $scope module CPU.IFID $end
  $upscope $end
  $scope module CPU.IDEX $end
  $upscope $end
  $scope module CPU.MEMWB $end
  $upscope $end
  $scope module CPU.ID $end
  $upscope $end
  $scope module CPU.EX.ALU $end
  $upscope $end
  $scope module CPU.ID.registers $end
  $upscope $end
  $scope module CPU.EXMEM $end
  $upscope $end
  $scope module CPU.IF $end
  $upscope $end
  $scope module CPU.IF.IMEM $end
  $upscope $end
  $scope module CPU.MEM.DMEM $end
  $upscope $end
  $scope module CPU.ID.Decoder $end
  $upscope $end
  $scope module CPU $end
   $var wire 32 2 testHarness_setupSignals_IMEMsignals_address $end
   $var wire 32 8 testHarness_setupSignals_IMEMsignals_instruction $end
   $var wire 1 G testHarness_regUpdates_writeEnable $end
   $var wire 1 ^ ID $end
   $var wire 1 o IDEX $end
   $var wire 1 p MEMWB $end
   $var wire 1 u testHarness_memUpdates_writeEnable $end
   $var wire 32 "# testHarness_regUpdates_writeData $end
   $var wire 5 "$ testHarness_regUpdates_writeAddress $end
   $var wire 5 "& testHarness_setupSignals_registerSignals_readAddress $end
   $var wire 32 ") testHarness_testReadouts_registerRead $end
   $var wire 32 "6 testHarness_currentPC $end
   $var wire 1 ": IF $end
   $var wire 1 "@ EXMEM $end
   $var wire 32 "J testHarness_memUpdates_writeAddress $end
   $var wire 1 "P testHarness_setupSignals_DMEMsignals_setup $end
   $var wire 32 "^ testHarness_testReadouts_DMEMread $end
   $var wire 32 "b testHarness_setupSignals_DMEMsignals_dataIn $end
   $var wire 1 "e testHarness_setupSignals_IMEMsignals_setup $end
   $var wire 1 "l IFID $end
   $var wire 1 "| clock $end
   $var wire 32 #" testHarness_setupSignals_DMEMsignals_dataAddress $end
   $var wire 1 #+ testHarness_setupSignals_registerSignals_setup $end
   $var wire 1 #3 MEM $end
   $var wire 1 #H testHarness_setupSignals_registerSignals_writeEnable $end
   $var wire 1 #^ EX $end
   $var wire 32 #r testHarness_memUpdates_writeData $end
   $var wire 32 $! testHarness_setupSignals_registerSignals_writeData $end
   $var wire 1 $% reset $end
   $var wire 1 $* testHarness_setupSignals_DMEMsignals_writeEnable $end
    $scope module ID $end
     $var wire 1 ! testHarness_registerSetup_writeEnable $end
     $var wire 1 $ io_op2Select $end
     $var wire 1 / io_controlSignals_memRead $end
     $var wire 32 9 io_WBinstruction_instruction $end
     $var wire 4 ? io_ALUop $end
     $var wire 1 P io_controlSignals_regWrite $end
     $var wire 32 \ testHarness_registerPeek $end
     $var wire 1 t testHarness_testUpdates_writeEnable $end
     $var wire 32 w io_instruction_instruction $end
     $var wire 32 | testHarness_registerSetup_writeData $end
     $var wire 5 "% testHarness_testUpdates_writeAddress $end
     $var wire 32 "1 io_WBaluResultIn $end
     $var wire 32 "5 io_RegB $end
     $var wire 1 "> io_WBcontrolSignals_memRead $end
     $var wire 32 "A io_WBdataMemIn $end
     $var wire 1 "E io_controlSignals_memWrite $end
     $var wire 32 "c io_RegA $end
     $var wire 5 "o testHarness_registerSetup_readAddress $end
     $var wire 1 "x registers $end
     $var wire 1 #M Decoder $end
     $var wire 1 #n testHarness_registerSetup_setup $end
     $var wire 32 #q testHarness_testUpdates_writeData $end
     $var wire 32 #s io_immediate $end
     $var wire 1 #x clock $end
     $var wire 1 #| io_WBcontrolSignals_regWrite $end
      $scope module registers $end
       $var wire 1 ) testHarness_testUpdates_writeEnable $end
       $var wire 1 , testHarness_setup_setup $end
       $var wire 32 7 testHarness_testUpdates_writeData $end
       $var wire 5 : readAddress1 $end
       $var wire 1 A clock $end
       $var wire 32 E io_readData1 $end
       $var wire 32 H registerFile $end
       $var wire 1 O testHarness_setup_writeEnable $end
       $var wire 1 f writeEnable $end
       $var wire 5 r io_readAddress1 $end
       $var wire 5 "( testHarness_testUpdates_writeAddress $end
       $var wire 1 "= io_writeEnable $end
       $var wire 32 "X testHarness_setup_writeData $end
       $var wire 32 "i io_writeData $end
       $var wire 5 #* testHarness_setup_readAddress $end
       $var wire 32 #5 io_readData2 $end
       $var wire 5 #; writeAddress $end
       $var wire 5 #R io_writeAddress $end
       $var wire 5 #U io_readAddress2 $end
        $scope module registerFile $end
          $scope module _T_33 $end
           $var wire 1 % en $end
           $var wire 1 - pipeline_valid_0 $end
           $var wire 1 > clk $end
           $var wire 5 "2 pipeline_addr_0 $end
           $var wire 1 "; mask $end
           $var wire 1 "a valid $end
           $var wire 5 #& addr $end
           $var wire 32 #L pipeline_data_0 $end
           $var wire 32 #u data $end
          $upscope $end
          $scope module _T_41 $end
           $var wire 32 i data $end
           $var wire 1 "/ en $end
           $var wire 1 "u clk $end
           $var wire 5 #h addr $end
          $upscope $end
          $scope module _T_38 $end
           $var wire 1 v clk $end
           $var wire 1 "[ en $end
           $var wire 5 "m addr $end
           $var wire 32 #d data $end
          $upscope $end
        $upscope $end
      $upscope $end
      $scope module Decoder $end
       $var wire 1 3 io_controlSignals_memWrite $end
       $var wire 1 C io_controlSignals_memRead $end
       $var wire 1 "* io_op2Select $end
       $var wire 1 "s io_controlSignals_regWrite $end
       $var wire 4 #9 io_ALUop $end
       $var wire 32 #A io_instruction_instruction $end
       $var wire 1 #a decodedControlSignals_1 $end
       $var wire 3 $# io_immType $end
      $upscope $end
    $upscope $end
    $scope module EXMEM $end
     $var wire 1 " reset $end
     $var wire 1 ( controlSignals_branch $end
     $var wire 32 4 io_instructionIn_instruction $end
     $var wire 1 B io_controlSignalsIn_memWrite $end
     $var wire 32 [ aluResult $end
     $var wire 32 ` io_RegBIn $end
     $var wire 1 a io_controlSignalsOut_regWrite $end
     $var wire 1 g controlSignals_regWrite $end
     $var wire 1 q io_controlSignalsOut_branch $end
     $var wire 32 ". instruction_instruction $end
     $var wire 1 "0 controlSignals_memRead $end
     $var wire 1 "G io_controlSignalsIn_memRead $end
     $var wire 1 "K io_controlSignalsOut_memWrite $end
     $var wire 1 "\ io_controlSignalsIn_jump $end
     $var wire 32 "g io_aluResultOut $end
     $var wire 1 #' controlSignals_memWrite $end
     $var wire 1 #. clock $end
     $var wire 1 #= io_controlSignalsIn_branch $end
     $var wire 1 #> io_controlSignalsOut_memRead $end
     $var wire 1 #? io_controlSignalsOut_jump $end
     $var wire 32 #Q RegB $end
     $var wire 32 #T io_aluResultIn $end
     $var wire 32 #W io_instructionOut_instruction $end
     $var wire 1 #Y io_controlSignalsIn_regWrite $end
     $var wire 1 $& controlSignals_jump $end
     $var wire 32 $' io_RegBOut $end
    $upscope $end
    $scope module MEM $end
     $var wire 32 . io_RegB $end
     $var wire 1 R DMEM $end
     $var wire 32 Z testHarness_testUpdates_writeAddress $end
     $var wire 32 "8 testHarness_DMEMsetup_dataAddress $end
     $var wire 32 "C io_aluResult $end
     $var wire 32 "O io_dataOut $end
     $var wire 1 "} testHarness_testUpdates_writeEnable $end
     $var wire 1 #0 testHarness_DMEMsetup_writeEnable $end
     $var wire 1 #< io_controlSignals_memWrite $end
     $var wire 32 #@ testHarness_DMEMpeek $end
     $var wire 1 #` testHarness_DMEMsetup_setup $end
     $var wire 32 #g testHarness_testUpdates_writeData $end
     $var wire 1 #o clock $end
     $var wire 32 $" testHarness_DMEMsetup_dataIn $end
      $scope module DMEM $end
       $var wire 32 + testHarness_testUpdates_writeData $end
       $var wire 1 1 _GEN_6 $end
       $var wire 12 ; data__T_24_addr_pipe_0 $end
       $var wire 1 M testHarness_testUpdates_writeEnable $end
       $var wire 32 V testHarness_setup_dataAddress $end
       $var wire 12 W io_dataAddress $end
       $var wire 32 _ testHarness_testUpdates_writeAddress $end
       $var wire 32 y addressSource $end
       $var wire 32 "! data $end
       $var wire 1 "Q io_writeEnable $end
       $var wire 1 "~ testHarness_setup_writeEnable $end
       $var wire 1 ## testHarness_setup_setup $end
       $var wire 1 #P clock $end
       $var wire 32 #b testHarness_setup_dataIn $end
       $var wire 32 #m io_dataIn $end
       $var wire 32 #v io_dataOut $end
        $scope module data $end
          $scope module _T_26 $end
           $var wire 1 # clk $end
           $var wire 12 m addr $end
           $var wire 32 { pipeline_data_0 $end
           $var wire 1 "L pipeline_valid_0 $end
           $var wire 32 "] data $end
           $var wire 1 #J en $end
           $var wire 12 #Z pipeline_addr_0 $end
           $var wire 1 #e valid $end
           $var wire 1 #z mask $end
          $upscope $end
          $scope module _T_24 $end
           $var wire 32 L data $end
           $var wire 1 "j clk $end
           $var wire 1 #N en $end
           $var wire 12 #] addr $end
          $upscope $end
        $upscope $end
      $upscope $end
    $upscope $end
    $scope module EX $end
     $var wire 1 & ALU $end
     $var wire 32 < io_RegA $end
     $var wire 1 c io_op2Select $end
     $var wire 4 n io_ALUop $end
     $var wire 32 z io_immediate $end
     $var wire 32 #6 io_RegB $end
     $var wire 32 #7 io_aluResult $end
      $scope module ALU $end
       $var wire 32 T io_op1 $end
       $var wire 32 k io_aluResult $end
       $var wire 4 "+ io_aluOp $end
       $var wire 63 #- _GEN_0 $end
       $var wire 32 #F io_op2 $end
      $upscope $end
    $upscope $end
    $scope module IF $end
     $var wire 1 ' testHarness_IMEMsetup_setup $end
     $var wire 1 U IMEM $end
     $var wire 32 b testHarness_IMEMsetup_instruction $end
     $var wire 32 ", PC $end
     $var wire 1 "D clock $end
     $var wire 32 "F testHarness_PC $end
     $var wire 1 #8 reset $end
     $var wire 32 #G testHarness_IMEMsetup_address $end
     $var wire 32 #j io_instruction_instruction $end
     $var wire 32 $$ _GEN_0 $end
      $scope module IMEM $end
       $var wire 32 I testHarness_setupSignals_instruction $end
       $var wire 12 Q instructions__T_20_addr_pipe_0 $end
       $var wire 1 "" clock $end
       $var wire 32 "Z testHarness_setupSignals_address $end
       $var wire 1 "f _GEN_4 $end
       $var wire 32 "p io_instruction $end
       $var wire 1 #) testHarness_setupSignals_setup $end
       $var wire 32 #\ addressSource $end
       $var wire 32 #f testHarness_requestedAddress $end
       $var wire 32 #w io_instructionAddress $end
       $var wire 32 #~ instructions $end
        $scope module instructions $end
          $scope module _T_18 $end
           $var wire 1 0 valid $end
           $var wire 1 F mask $end
           $var wire 1 j pipeline_valid_0 $end
           $var wire 12 "4 addr $end
           $var wire 1 "7 clk $end
           $var wire 32 "t data $end
           $var wire 12 "y pipeline_addr_0 $end
           $var wire 32 #i pipeline_data_0 $end
           $var wire 1 #{ en $end
          $upscope $end
          $scope module _T_20 $end
           $var wire 1 ~ en $end
           $var wire 12 "S addr $end
           $var wire 1 "r clk $end
           $var wire 32 #D data $end
          $upscope $end
        $upscope $end
      $upscope $end
    $upscope $end
    $scope module MEMWB $end
     $var wire 1 * io_controlSignalsOut_memRead $end
     $var wire 1 = controlSignals_memWrite $end
     $var wire 1 K io_controlSignalsIn_regWrite $end
     $var wire 32 N io_aluResultIn $end
     $var wire 1 S clock $end
     $var wire 32 ] io_instructionOut_instruction $end
     $var wire 32 d io_aluResultOut $end
     $var wire 1 x controlSignals_branch $end
     $var wire 32 "9 io_instructionIn_instruction $end
     $var wire 32 "< aluResult $end
     $var wire 1 "? io_controlSignalsIn_memWrite $end
     $var wire 1 "B io_controlSignalsIn_memRead $end
     $var wire 1 "N reset $end
     $var wire 1 "_ io_controlSignalsOut_regWrite $end
     $var wire 1 "w controlSignals_jump $end
     $var wire 1 #! controlSignals_regWrite $end
     $var wire 32 #I io_dataMemOut $end
     $var wire 32 #K io_dataMemIn $end
     $var wire 1 #S controlSignals_memRead $end
     $var wire 1 #V io_controlSignalsIn_branch $end
     $var wire 1 #[ io_controlSignalsIn_jump $end
     $var wire 32 $( instruction_instruction $end
    $upscope $end
    $scope module IDEX $end
     $var wire 1 @ io_controlSignalsOut_memWrite $end
     $var wire 32 D ALUop $end
     $var wire 32 X op2Select $end
     $var wire 32 e immediate $end
     $var wire 32 h io_RegAOut $end
     $var wire 1 l clock $end
     $var wire 32 s io_RegAIn $end
     $var wire 1 "' io_op2SelectIn $end
     $var wire 1 "- io_controlSignalsOut_memRead $end
     $var wire 32 "3 io_immediateIn $end
     $var wire 1 "H io_controlSignalsIn_regWrite $end
     $var wire 32 "R io_instructionOut_instruction $end
     $var wire 1 "T io_controlSignalsOut_branch $end
     $var wire 1 "V reset $end
     $var wire 4 "W io_ALUopIn $end
     $var wire 1 "` controlSignals_regWrite $end
     $var wire 32 "d RegB $end
     $var wire 4 "k _GEN_1 $end
     $var wire 1 "v controlSignals_memRead $end
     $var wire 32 "z instruction_instruction $end
     $var wire 1 "{ io_controlSignalsOut_regWrite $end
     $var wire 32 #( io_immediateOut $end
     $var wire 32 #, io_RegBOut $end
     $var wire 1 #/ io_controlSignalsIn_memWrite $end
     $var wire 32 #1 RegA $end
     $var wire 1 #4 io_controlSignalsIn_memRead $end
     $var wire 32 #: io_instructionIn_instruction $end
     $var wire 1 #O io_controlSignalsOut_jump $end
     $var wire 4 #X io_ALUopOut $end
     $var wire 1 #l io_op2SelectOut $end
     $var wire 32 #p io_RegBIn $end
     $var wire 1 #y _GEN_0 $end
     $var wire 1 #} controlSignals_memWrite $end
    $upscope $end
    $scope module IFID $end
     $var wire 32 #2 io_instructionIn_instruction $end
     $var wire 32 #B io_instructionOut_instruction $end
    $upscope $end
  $upscope $end
$upscope $end
$enddefinitions $end
$dumpvars
0o
0$%
0R
0=
b00000 "o
b00000 #;
b00000000000000000000000000000000 #6
b00000000000000000000000000000000 #K
0#c
0"P
b00000000000000000000000000000000 "8
b00000000000000000000000000000000 "#
b00000000000000000000000000000000 "U
0#t
0"v
b00000000000000000000000000000000 "I
b000000000000 m
b000000000000 ;
0#S
0"r
b00000000000000000000000000000000 w
0a
b00000000000000000000000000000000 b
0#!
0"@
b00000000000000000000000000000000 E
b00000000000000000000000000000000 #w
0/
b00000000000000000000000000000000 #(
0#O
b00000000000000000000000000000000 s
0"Q
b00000000000000000000000000000000 #s
0@
b00000000000000000000000000000000 "X
b00000000000000000000000000000000 "C
0"l
b00000 "Y
0p
0$&
b0000 ?
0#M
b00000000000000000000000000000000 T
0>
b00000000000000000000000000000000 #i
0#0
0#^
0"}
0l
0"`
0"K
b00000000000000000000000000000000 e
0O
0#$
b000000000000 #]
b00000000000000000000000000000000 $)
b00000000000000000000000000000000 "g
b00000000000000000000000000000000 "5
0"?
0"*
b00000000000000000000000000000000 #v
b00000000000000000000000000000000 #D
b00000000000000000000000000000000 "c
b00000000000000000000000000000000 "1
b00000000000000000000000000000000 #j
0#P
b00000000000000000000000000000000 _
0"=
b00000000000000000000000000000000 #W
b00000000000000000000000000000000 #f
0#a
b00000 "m
b00000000000000000000000000000000 [
0"N
b00000 "&
0#/
b00000000000000000000000000000000 "!
b00000000000000000000000000000000 "6
1~
0"_
0"-
b00000000000000000000000000000000 2
0"~
b00000000000000000000000000000000 $(
b00000000000000000000000000000000 #2
b00000000000000000000000000000000 #G
b0000 n
b00000000000000000000000000000000 #u
b00000000000000000000000000000000 .
0-
b00000000000000000000000000000000 "b
b00000000000000000000000000000000 #C
0#[
0#>
b00000 :
b00000000000000000000000000000000 $$
b00000000000000000000000000000000 "^
b00000000000000000000000000000000 {
b00000000000000000000000000000000 #"
b00000000000000000000000000000000 ",
b00000000000000000000000000000000 "A
0#`
0Y
0#.
0"M
b00000000000000000000000000000000 #g
0'
b00000000000000000000000000000000 "i
b00000000000000000000000000000000 #5
0"{
0j
0U
0M
0#{
0#
b00000 #h
b00000000000000000000000000000000 N
b00000000000000000000000000000000 #F
b00000000000000000000000000000000 #1
b00000000000000000000000000000000 $'
b00000000000000000000000000000000 "3
b000000000000 W
0#o
b00000 #*
0"\
0#=
0"G
0K
b00000000000000000000000000000000 L
b0000 "k
b000 $#
0#k
b00000000000000000000000000000000 z
b00000 #&
b0000 #9
b00000000000000000000000000000000 ]
b00000000000000000000000000000000 H
b00000000000000000000000000000000 #r
0G
b00000 "(
0*
b00000000000000000000000000000000 "t
b00000000000000000000000000000000 $!
b00000000000000000000000000000000 #@
b00000000000000000000000000000000 +
0C
0"7
0"L
b00000000000000000000000000000000 <
0&
b00000000000000000000000000000000 "p
0""
b00000 "$
b00000000000000000000000000000000 #Q
b0000 "+
0"|
b00000000000000000000000000000000 "d
0#H
b00000000000000000000000000000000 #E
0#+
b00000000000000000000000000000000 #d
b00000 r
0#n
0#Y
0"x
b00000000000000000000000000000000 #A
b00000000000000000000000000000000 h
0#<
0#'
b00000000000000000000000000000000 ".
b00000000000000000000000000000000 `
b00000000000000000000000000000000 6
05
b00000000000000000000000000000000 }
0g
b00000000000000000000000000000000 $"
0"[
0x
b0000 "W
b00000000000000000000000000000000 #q
0":
0)
b00000000000000000000000000000000 #T
0#l
1#N
1";
0#}
b00000 #U
0%
0v
0"j
b00000000000000000000000000000000 "R
b00000000000000000000000000000000 Z
b00000 "%
0#y
0!
b00000000000000000000000000000000 #L
b00000000000000000000000000000000 k
b00000000000000000000000000000000 "9
b00000000000000000000000000000000 V
b00000000000000000000000000000000 9
1#z
0"w
b0000 #X
b00000000000000000000000000000000 |
0f
0"E
b00000000000000000000000000000000 J
b00000000000000000000000000000000 #_
b00000000000000000000000000000000 #B
b00000000000000000000000000000000 i
b00000000000000000000000000000000 #%
0"V
b00000000000000000000000000000000 #p
b00000000000000000000000000000000 "z
00
0(
0#V
b00000000000000000000000000000000 "]
0"u
0#|
0u
0#J
0"T
b00000000000000000000000000000000 "<
b00000000000000000000000000000000 D
0#x
0q
0"e
0#)
b000000000000 "y
0"H
b00000000000000000000000000000000 8
b00000 "q
b00000000000000000000000000000000 #b
b00000 #R
0"
b000000000000 #Z
b00000000000000000000000000000000 "O
b000000000000000000000000000000000000000000000000000000000000000 #-
0"a
1"f
1F
0P
0"D
11
b00000000000000000000000000000000 I
b00000000000000000000000000000000 4
0"'
b00000000000000000000000000000000 #I
0"/
03
b00000000000000000000000000000000 #,
b00000000000000000000000000000000 y
b00000000000000000000000000000000 d
0c
0"B
b00000000000000000000000000000000 \
0#8
0##
b00000000000000000000000000000000 #\
0t
0$*
0#4
0">
b00000000000000000000000000000000 X
0B
b00000000000000000000000000000000 #m
0"h
b00000000000000000000000000000000 "Z
0S
b00000000000000000000000000000000 #~
b00000000000000000000000000000000 7
b00000000000000000000000000000000 #7
b00000000000000000000000000000000 "J
b00000 "2
0"0
b000000000000 Q
b000000000000 "S
0"s
0#?
b00000000000000000000000000000000 "F
b00000000000000000000000000000000 ")
0#e
0^
0#3
0A
0,
0$
b00000000000000000000000000000000 "n
b00000000000000000000000000000000 #:
b000000000000 "4
$end
#0
1#8
1#c
b1111 ?
b00000000000000000000000000000100 $$
1"
1"N
1$%
1"V
b1111 #9
b1111 "W
#1
1"|
1#P
1#o
1"u
1#.
1"7
1"j
1"r
1""
1"h
1#
1#x
1S
1>
1A
1"D
1l
1v
#6
0l
0v
0#o
0"7
0"r
0A
0"D
0#.
0""
0"h
0"u
0>
0"j
0#P
0S
0#x
0"|
0#
#11
1"|
1#P
1#o
1"u
1#.
1"7
1"j
1"r
1""
1"h
1#
1#x
1S
1>
1A
1"D
1l
1v
#16
0l
0v
0#o
0"7
0"r
0A
0"D
0#.
0""
0"h
0"u
0>
0"j
0#P
0S
0#x
0"|
0#
#21
1"|
1#P
1#o
1"u
1#.
1"7
1"j
1"r
1""
1"h
1#
1#x
1S
1>
1A
1"D
1l
1v
#26
0l
0v
0#o
0"7
0"r
0A
0"D
0#.
0""
0"h
0"u
0>
0"j
0#P
0S
0#x
0"|
0#
#31
1"|
1#P
1#o
1"u
1#.
1"7
1"j
1"r
1""
1"h
1#
1#x
1S
1>
1A
1"D
1l
1v
#36
0l
0v
0#o
0"7
0"r
0A
0"D
0#.
0""
0"h
0"u
0>
0"j
0#P
0S
0#x
0"|
0#
#41
1"|
1#P
1#o
1"u
1#.
1"7
1"j
1"r
1""
1"h
1#
1#x
1S
1>
1A
1"D
1l
1v
#46
0#c
b0000 #9
1"e
b0000 "W
0"7
b00000000000000000000000000010011 #j
0"D
0"N
0#x
b0000 ?
0"
1"H
1'
1$
1"P
1"s
1P
0"V
0"r
b00000000011000101000001010110011 8
0$%
0#.
0#P
1"*
0S
1#y
b00000000000000000000000000010011 #B
b00000000000000000000000000010011 #A
b00000000011000101000001010110011 "t
0#o
1"'
b00000000000000000000000000010011 #:
1#k
0#8
b00000000000000000000000000010011 #2
0""
0"u
0>
0"j
1#`
1#n
0#
0l
1#)
b00000000011000101000001010110011 b
0v
b00000000011000101000001010110011 #C
1#+
10
0A
b00000000000000000000000000010011 w
1#{
1,
b00000000011000101000001010110011 I
b00000000000000000000000000000000 $$
1##
0"h
0"|
#51
1"|
1#P
1#o
1"u
b00000000011000101000001010110011 #i
1"7
1"`
b00000000000000000000000000000001 X
b00000000000000000000000000010011 4
b00000000000000000000000000010011 "z
1"h
1#
1#x
1j
1A
b00000000011000101000001010110011 #D
1l
1v
1#Y
1#.
1#l
b00000000011000101000001010110011 "p
1"j
1"r
b00000000000000000000000000010011 "R
1"{
1""
1c
1S
1>
1"D
#56
b00000000000000000000000000010011 I
b00000000000000000000000000000100 #\
b00000000000000000000000000010011 b
0#o
0"7
b00000000000000000000000000000100 "Z
0"D
b00000000000000000000000000010011 #C
0""
0"u
0>
0"j
0#x
b00000000000000000000000000000100 #G
0#
0l
b000000000100 "4
0v
b00000000000000000000000000000100 2
0"r
0A
b00000000000000000000000000000100 J
0#.
b00000000000000000000000000010011 8
0#P
0"h
0S
0"|
b00000000000000000000000000010011 "t
#61
1"|
1#P
1#o
1"u
1"7
b000000000100 "S
b00000000000000000000000000010011 ".
1"h
1#
b00000000000000000000000000010011 #D
1#x
1K
b00000000000000000000000000010011 #i
1A
1l
1v
b000000000100 Q
1a
1#.
1"j
1"r
1""
1g
b00000000000000000000000000010011 "9
b000000000100 "y
1S
b00000000000000000000000000010011 #W
1>
b00000000000000000000000000010011 "p
1"D
#66
0l
0v
b00000000000000000000000000001000 "Z
0#o
0"7
0"r
0A
b000000001000 "4
b00000000000000000000000000001000 2
0"D
b00000000000000000000000000001000 #G
0#.
0""
0"h
0"u
0>
0"j
0#P
0S
0#x
0"|
b00000000000000000000000000001000 J
b00000000000000000000000000001000 #\
0#
#71
1"|
1#P
1#o
1"u
b00000000000000000000000000010011 $(
1"7
1#!
1"=
1"h
1#
1#x
b00000000000000000000000000010011 9
1A
1l
1v
1"_
1#.
1"j
b000000001000 "y
1"r
1""
1#|
b00000000000000000000000000010011 ]
b000000001000 Q
1S
1>
1"D
b000000001000 "S
#76
0l
0v
b00000000000000000000000000001100 #\
b00000000000000000000000000001100 #G
0#o
0"7
b00000000000000000000000000001100 J
b00000000000000000000000000001100 "Z
0"r
0A
b000000001100 "4
b00000000000000000000000000001100 2
0"D
0#.
0""
0"h
0"u
0>
0"j
0#P
0S
0#x
0"|
0#
#81
b000000001100 "y
1"|
1#P
1#o
1"u
1#.
1"7
1"j
b000000001100 Q
1"r
1""
1"h
b000000001100 "S
1#
1#x
1S
1>
1A
1"D
1l
1v
#86
0l
0v
b00000000000000000000000000010000 2
b00000000000000000000000000010000 J
b00000000000000000000000000010000 #G
0#o
0"7
0"r
0A
b00000000000000000000000000010000 #\
0"D
0#.
0""
0"h
0"u
0>
0"j
0#P
0S
0#x
0"|
b00000000000000000000000000010000 "Z
b000000010000 "4
0#
#91
1"|
1#P
1#o
b000000010000 Q
1"u
1#.
1"7
1"j
1"r
1""
1"h
b000000010000 "S
b000000010000 "y
1#
1#x
1S
1>
1A
1"D
1l
1v
#96
b00000000000000000000000000010100 J
b00000000000000000000000000010100 2
0#o
0"7
b00000000011000101000001110110011 I
0"D
b00000000000000000000000000010100 "Z
0""
0"u
0>
0"j
0#x
b00000000000000000000000000010100 #\
0#
0l
b000000010100 "4
0v
b00000000011000101000001110110011 8
b00000000011000101000001110110011 #C
b00000000011000101000001110110011 "t
0"r
b00000000000000000000000000010100 #G
0A
0#.
0#P
0"h
0S
b00000000011000101000001110110011 b
0"|
#101
b00000000011000101000001110110011 #i
1"|
1#P
1#o
1"u
1#.
1"7
1"j
b00000000011000101000001110110011 #D
1"r
1""
b000000010100 Q
b000000010100 "y
b00000000011000101000001110110011 "p
1"h
1#
1#x
1S
b000000010100 "S
1>
1A
1"D
1l
1v
#106
b00000000000000000000000000011000 "Z
b00000000000000000000000000010011 I
b00000000000000000000000000010011 b
0#o
0"7
b00000000000000000000000000011000 J
0"D
b00000000000000000000000000010011 #C
0""
0"u
0>
0"j
0#x
b00000000000000000000000000011000 #G
b00000000000000000000000000011000 2
0#
0l
0v
b00000000000000000000000000011000 #\
0"r
0A
b000000011000 "4
0#.
b00000000000000000000000000010011 8
0#P
0"h
0S
0"|
b00000000000000000000000000010011 "t
#111
b00000000000000000000000000010011 "p
1l
1"|
1#P
1#o
1"u
1#.
1"7
1"j
1"r
1""
b000000011000 "S
1"h
1#
b00000000000000000000000000010011 #D
1#x
b000000011000 "y
1S
1>
b00000000000000000000000000010011 #i
1A
1"D
b000000011000 Q
1v
#116
0l
0v
0#o
0"7
0"r
b00000000000000000000000000011100 #G
0A
b00000000000000000000000000011100 "Z
b00000000000000000000000000011100 J
0"D
b00000000000000000000000000011100 2
0#.
b000000011100 "4
b00000000000000000000000000011100 #\
0""
0"h
0"u
0>
0"j
0#P
0S
0#x
0"|
0#
#121
1"|
1#P
1#o
1"u
1#.
1"7
b000000011100 "y
1"j
1"r
1""
1"h
b000000011100 Q
1#
1#x
1S
b000000011100 "S
1>
1A
1"D
1l
1v
#126
b00000000000000000000000000100000 #\
0l
b00000000000000000000000000100000 #G
0v
b00000000000000000000000000100000 2
0#o
0"7
0"r
0A
0"D
b000000100000 "4
b00000000000000000000000000100000 "Z
0#.
b00000000000000000000000000100000 J
0""
0"h
0"u
0>
0"j
0#P
0S
0#x
0"|
0#
#131
1"|
1#P
1#o
1"u
1#.
1"7
1"j
b000000100000 Q
1"r
1""
1"h
1#
1#x
b000000100000 "y
1S
b000000100000 "S
1>
1A
1"D
1l
1v
#136
0l
0v
b00000000000000000000000000100100 "Z
b00000000000000000000000000100100 J
b00000000000000000000000000100100 #G
0#o
0"7
0"r
0A
0"D
0#.
b00000000000000000000000000100100 #\
b00000000000000000000000000100100 2
0""
0"h
0"u
0>
0"j
0#P
0S
0#x
0"|
b000000100100 "4
0#
#141
1"|
1#P
1#o
b000000100100 Q
1"u
b000000100100 "y
1#.
1"7
1"j
b000000100100 "S
1"r
1""
1"h
1#
1#x
1S
1>
1A
1"D
1l
1v
#146
b00000000011000101000000000110011 "t
0#o
0"7
b00000000000000000000000000101000 "Z
0"D
b00000000000000000000000000101000 J
b00000000000000000000000000101000 2
0""
0"u
0>
0"j
0#x
b00000000011000101000000000110011 8
b000000101000 "4
0#
0l
b00000000011000101000000000110011 b
0v
b00000000000000000000000000101000 #G
b00000000011000101000000000110011 #C
0"r
0A
b00000000000000000000000000101000 #\
0#.
b00000000011000101000000000110011 I
0#P
0"h
0S
0"|
#151
1"|
1#P
b00000000011000101000000000110011 #i
1#o
1"u
b00000000011000101000000000110011 "p
1#.
1"7
1"j
1"r
1""
b000000101000 "y
1"h
1#
1#x
b000000101000 "S
b000000101000 Q
b00000000011000101000000000110011 #D
1S
1>
1A
1"D
1l
1v
#156
b000000101100 "4
b00000000000000000000000000010011 I
b00000000000000000000000000010011 b
0#o
0"7
0"D
b00000000000000000000000000010011 #C
0""
0"u
0>
0"j
0#x
b00000000000000000000000000101100 2
b00000000000000000000000000101100 "Z
0#
0l
0v
b00000000000000000000000000101100 #G
0"r
b00000000000000000000000000101100 #\
0A
0#.
b00000000000000000000000000010011 8
0#P
0"h
0S
b00000000000000000000000000101100 J
0"|
b00000000000000000000000000010011 "t
#161
b000000101100 "S
1l
1"|
1#P
b000000101100 "y
1#o
1"u
1#.
b000000101100 Q
1"7
1"j
1"r
1""
1"h
1#
b00000000000000000000000000010011 #D
1#x
1S
1>
b00000000000000000000000000010011 #i
1A
1"D
b00000000000000000000000000010011 "p
1v
#166
b00000000000000000000000000110000 "Z
0l
0v
b000000110000 "4
0#o
0"7
b00000000000000000000000000110000 #G
0"r
0A
0"D
b00000000000000000000000000110000 #\
0#.
b00000000000000000000000000110000 J
0""
0"h
0"u
0>
0"j
0#P
0S
0#x
0"|
b00000000000000000000000000110000 2
0#
#171
1l
1"|
1#P
1#o
1"u
1#.
1"7
1"j
1"r
1""
1"h
b000000110000 "y
1#
1#x
b000000110000 "S
1S
1>
1A
b000000110000 Q
1"D
1v
#176
b00000000000000000000000000110100 "Z
0l
0v
b00000000000000000000000000110100 #\
0#o
0"7
b000000110100 "4
0"r
0A
0"D
b00000000000000000000000000110100 2
b00000000000000000000000000110100 #G
b00000000000000000000000000110100 J
0#.
0""
0"h
0"u
0>
0"j
0#P
0S
0#x
0"|
0#
