waveforms/constants.s.vcd
$date
2022-10-11T11:27+0000
$end
$version
0.2
$end
$comment

$end
$timescale 1ns  $end
$scope module Tile $end
 $var wire 1 7 io_regsWriteEnable $end
 $var wire 32 9 io_regsReadData $end
 $var wire 32 O io_IMEMAddress $end
 $var wire 1 ` io_regsDeviceWriteEnable $end
 $var wire 32 "0 io_DMEMAddress $end
 $var wire 32 "` io_DMEMWriteData $end
 $var wire 1 "d CPU $end
 $var wire 32 "m io_regsDeviceWriteData $end
 $var wire 5 "s io_regsDeviceWriteAddress $end
 $var wire 1 #% clock $end
 $var wire 32 #+ io_currentPC $end
 $var wire 5 #0 io_regsAddress $end
 $var wire 1 #B io_DMEMWriteEnable $end
 $var wire 32 #C io_memDeviceWriteAddress $end
 $var wire 32 #g io_IMEMWriteData $end
 $var wire 32 #i io_memDeviceWriteData $end
 $var wire 32 $* io_DMEMReadData $end
 $var wire 1 $2 reset $end
 $var wire 1 $; io_setup $end
 $var wire 1 $D io_memDeviceWriteEnable $end
 $var wire 32 $Z io_regsWriteData $end
  $scope module CPU.EX $end
  $upscope $end
  $scope module CPU.MEM $end
  $upscope $end
  $scope module CPU.IFID $end
  $upscope $end
  $scope module CPU.IDEX $end
  $upscope $end
  $scope module CPU.MEMWB $end
  $upscope $end
  $scope module CPU.ID $end
  $upscope $end
  $scope module CPU.EX.ALU $end
  $upscope $end
  $scope module CPU.ID.registers $end
  $upscope $end
  $scope module CPU.EXMEM $end
  $upscope $end
  $scope module CPU.IF $end
  $upscope $end
  $scope module CPU.IF.IMEM $end
  $upscope $end
  $scope module CPU.EX.Comparator $end
  $upscope $end
  $scope module CPU.MEM.DMEM $end
  $upscope $end
  $scope module CPU.ID.Decoder $end
  $upscope $end
  $scope module CPU $end
   $var wire 32 4 testHarness_setupSignals_IMEMsignals_address $end
   $var wire 32 < testHarness_setupSignals_IMEMsignals_instruction $end
   $var wire 1 L testHarness_regUpdates_writeEnable $end
   $var wire 1 e ID $end
   $var wire 1 | IDEX $end
   $var wire 1 ~ MEMWB $end
   $var wire 1 "' testHarness_memUpdates_writeEnable $end
   $var wire 32 "4 testHarness_regUpdates_writeData $end
   $var wire 5 "5 testHarness_regUpdates_writeAddress $end
   $var wire 5 "7 testHarness_setupSignals_registerSignals_readAddress $end
   $var wire 32 ": testHarness_testReadouts_registerRead $end
   $var wire 32 "H testHarness_currentPC $end
   $var wire 1 "M IF $end
   $var wire 1 "S EXMEM $end
   $var wire 32 "a testHarness_memUpdates_writeAddress $end
   $var wire 1 "h testHarness_setupSignals_DMEMsignals_setup $end
   $var wire 32 "x testHarness_testReadouts_DMEMread $end
   $var wire 32 "| testHarness_setupSignals_DMEMsignals_dataIn $end
   $var wire 1 #! testHarness_setupSignals_IMEMsignals_setup $end
   $var wire 1 #) IFID $end
   $var wire 1 #< clock $end
   $var wire 32 #@ testHarness_setupSignals_DMEMsignals_dataAddress $end
   $var wire 1 #K testHarness_setupSignals_registerSignals_setup $end
   $var wire 1 #T MEM $end
   $var wire 1 #l testHarness_setupSignals_registerSignals_writeEnable $end
   $var wire 1 $) EX $end
   $var wire 32 $B testHarness_memUpdates_writeData $end
   $var wire 32 $O testHarness_setupSignals_registerSignals_writeData $end
   $var wire 1 $V reset $end
   $var wire 1 $[ testHarness_setupSignals_DMEMsignals_writeEnable $end
    $scope module ID $end
     $var wire 1 ! testHarness_registerSetup_writeEnable $end
     $var wire 1 $ io_op2Select $end
     $var wire 1 1 io_controlSignals_memRead $end
     $var wire 32 = io_WBinstruction_instruction $end
     $var wire 4 C io_ALUop $end
     $var wire 1 W io_controlSignals_regWrite $end
     $var wire 32 c testHarness_registerPeek $end
     $var wire 1 y io_op1Select $end
     $var wire 1 "& testHarness_testUpdates_writeEnable $end
     $var wire 32 ") io_instruction_instruction $end
     $var wire 32 "/ testHarness_registerSetup_writeData $end
     $var wire 5 "6 testHarness_testUpdates_writeAddress $end
     $var wire 32 "C io_WBaluResultIn $end
     $var wire 32 "G io_RegB $end
     $var wire 1 "Q io_WBcontrolSignals_memRead $end
     $var wire 32 "V io_WBdataMemIn $end
     $var wire 1 "Z io_controlSignals_branch $end
     $var wire 1 "\ io_controlSignals_memWrite $end
     $var wire 32 "} io_RegA $end
     $var wire 5 #, testHarness_registerSetup_readAddress $end
     $var wire 1 #. io_controlSignals_jump $end
     $var wire 1 #8 registers $end
     $var wire 1 #r Decoder $end
     $var wire 3 $+ io_branchType $end
     $var wire 1 $> testHarness_registerSetup_setup $end
     $var wire 32 $A testHarness_testUpdates_writeData $end
     $var wire 32 $C io_immediate $end
     $var wire 1 $H clock $end
     $var wire 1 $L io_WBcontrolSignals_regWrite $end
      $scope module registers $end
       $var wire 1 ) testHarness_testUpdates_writeEnable $end
       $var wire 1 . testHarness_setup_setup $end
       $var wire 32 : testHarness_testUpdates_writeData $end
       $var wire 5 > readAddress1 $end
       $var wire 1 E clock $end
       $var wire 32 I io_readData1 $end
       $var wire 32 M registerFile $end
       $var wire 1 V testHarness_setup_writeEnable $end
       $var wire 1 p writeEnable $end
       $var wire 5 "$ io_readAddress1 $end
       $var wire 5 "9 testHarness_testUpdates_writeAddress $end
       $var wire 1 "P io_writeEnable $end
       $var wire 32 "q testHarness_setup_writeData $end
       $var wire 32 #& io_writeData $end
       $var wire 5 #J testHarness_setup_readAddress $end
       $var wire 32 #V io_readData2 $end
       $var wire 5 #\ writeAddress $end
       $var wire 5 #y io_writeAddress $end
       $var wire 5 #} io_readAddress2 $end
        $scope module registerFile $end
          $scope module _T_33 $end
           $var wire 1 % en $end
           $var wire 1 / pipeline_valid_0 $end
           $var wire 1 B clk $end
           $var wire 5 "D pipeline_addr_0 $end
           $var wire 1 "N mask $end
           $var wire 1 "{ valid $end
           $var wire 5 #E addr $end
           $var wire 32 #q pipeline_data_0 $end
           $var wire 32 $E data $end
          $upscope $end
          $scope module _T_41 $end
           $var wire 32 u data $end
           $var wire 1 "@ en $end
           $var wire 1 #5 clk $end
           $var wire 5 $8 addr $end
          $upscope $end
          $scope module _T_38 $end
           $var wire 1 "( clk $end
           $var wire 1 "u en $end
           $var wire 5 #* addr $end
           $var wire 32 $3 data $end
          $upscope $end
        $upscope $end
      $upscope $end
      $scope module Decoder $end
       $var wire 1 5 io_controlSignals_memWrite $end
       $var wire 1 G io_controlSignals_memRead $end
       $var wire 1 "; io_op2Select $end
       $var wire 1 #2 io_controlSignals_regWrite $end
       $var wire 4 #Z io_ALUop $end
       $var wire 1 #^ io_op1Select $end
       $var wire 32 #e io_instruction_instruction $end
       $var wire 1 $0 decodedControlSignals_1 $end
       $var wire 1 $4 io_controlSignals_jump $end
       $var wire 3 $N io_branchType $end
       $var wire 1 $S io_controlSignals_branch $end
       $var wire 3 $T io_immType $end
      $upscope $end
    $upscope $end
    $scope module EXMEM $end
     $var wire 1 " reset $end
     $var wire 1 ( controlSignals_branch $end
     $var wire 32 6 io_instructionIn_instruction $end
     $var wire 32 ; io_PCOut $end
     $var wire 1 F io_controlSignalsIn_memWrite $end
     $var wire 1 P io_comparatorIn $end
     $var wire 32 b aluResult $end
     $var wire 32 i io_RegBIn $end
     $var wire 1 k io_controlSignalsOut_regWrite $end
     $var wire 1 s controlSignals_regWrite $end
     $var wire 1 "" comparator $end
     $var wire 1 "# io_controlSignalsOut_branch $end
     $var wire 32 "? instruction_instruction $end
     $var wire 1 "B controlSignals_memRead $end
     $var wire 1 "^ io_controlSignalsIn_memRead $end
     $var wire 1 "b io_controlSignalsOut_memWrite $end
     $var wire 1 "v io_controlSignalsIn_jump $end
     $var wire 32 ## io_aluResultOut $end
     $var wire 1 #G controlSignals_memWrite $end
     $var wire 1 #O clock $end
     $var wire 1 #` io_comparatorOut $end
     $var wire 1 #a io_controlSignalsIn_branch $end
     $var wire 1 #b io_controlSignalsOut_memRead $end
     $var wire 1 #c io_controlSignalsOut_jump $end
     $var wire 32 #w io_PCIn $end
     $var wire 32 #x RegB $end
     $var wire 32 #| io_aluResultIn $end
     $var wire 32 $! io_instructionOut_instruction $end
     $var wire 1 $$ io_controlSignalsIn_regWrite $end
     $var wire 32 $, PC $end
     $var wire 1 $W controlSignals_jump $end
     $var wire 32 $X io_RegBOut $end
    $upscope $end
    $scope module MEM $end
     $var wire 32 0 io_RegB $end
     $var wire 1 Y DMEM $end
     $var wire 32 a testHarness_testUpdates_writeAddress $end
     $var wire 32 "K testHarness_DMEMsetup_dataAddress $end
     $var wire 32 "X io_aluResult $end
     $var wire 32 "g io_dataOut $end
     $var wire 1 #= testHarness_testUpdates_writeEnable $end
     $var wire 1 #Q testHarness_DMEMsetup_writeEnable $end
     $var wire 1 #_ io_controlSignals_memWrite $end
     $var wire 32 #d testHarness_DMEMpeek $end
     $var wire 1 $- testHarness_DMEMsetup_setup $end
     $var wire 32 $7 testHarness_testUpdates_writeData $end
     $var wire 1 $? clock $end
     $var wire 32 $Q testHarness_DMEMsetup_dataIn $end
      $scope module DMEM $end
       $var wire 32 , testHarness_testUpdates_writeData $end
       $var wire 1 3 _GEN_6 $end
       $var wire 12 ? data__T_24_addr_pipe_0 $end
       $var wire 1 S testHarness_testUpdates_writeEnable $end
       $var wire 32 ] testHarness_setup_dataAddress $end
       $var wire 12 ^ io_dataAddress $end
       $var wire 32 f testHarness_testUpdates_writeAddress $end
       $var wire 32 "+ addressSource $end
       $var wire 32 "2 data $end
       $var wire 1 "i io_writeEnable $end
       $var wire 1 #> testHarness_setup_writeEnable $end
       $var wire 1 #A testHarness_setup_setup $end
       $var wire 1 #v clock $end
       $var wire 32 $1 testHarness_setup_dataIn $end
       $var wire 32 $= io_dataIn $end
       $var wire 32 $F io_dataOut $end
        $scope module data $end
          $scope module _T_26 $end
           $var wire 1 # clk $end
           $var wire 12 z addr $end
           $var wire 32 "- pipeline_data_0 $end
           $var wire 1 "c pipeline_valid_0 $end
           $var wire 32 "w data $end
           $var wire 1 #o en $end
           $var wire 12 $% pipeline_addr_0 $end
           $var wire 1 $5 valid $end
           $var wire 1 $J mask $end
          $upscope $end
          $scope module _T_24 $end
           $var wire 32 R data $end
           $var wire 1 #' clk $end
           $var wire 1 #t en $end
           $var wire 12 $( addr $end
          $upscope $end
        $upscope $end
      $upscope $end
    $upscope $end
    $scope module EX $end
     $var wire 1 & ALU $end
     $var wire 32 @ io_RegA $end
     $var wire 1 U Comparator $end
     $var wire 32 g io_PCOut $end
     $var wire 1 m io_op2Select $end
     $var wire 4 { io_ALUop $end
     $var wire 32 ", io_immediate $end
     $var wire 1 ". io_comparator $end
     $var wire 1 "[ io_op1Select $end
     $var wire 3 "o io_branchType $end
     $var wire 32 #W io_RegB $end
     $var wire 32 #X io_aluResult $end
     $var wire 32 #] io_PC $end
      $scope module ALU $end
       $var wire 32 [ io_op1 $end
       $var wire 32 w io_aluResult $end
       $var wire 4 "< io_aluOp $end
       $var wire 63 #N _GEN_0 $end
       $var wire 32 #j io_op2 $end
      $upscope $end
      $scope module Comparator $end
       $var wire 3 #3 io_branchType $end
       $var wire 32 #M io_op2 $end
       $var wire 32 #s io_result $end
       $var wire 32 $. io_op1 $end
      $upscope $end
    $upscope $end
    $scope module IF $end
     $var wire 1 ' testHarness_IMEMsetup_setup $end
     $var wire 1 \ IMEM $end
     $var wire 32 h io_PC $end
     $var wire 32 l testHarness_IMEMsetup_instruction $end
     $var wire 1 r io_EXMEMcontrolSignals_jump $end
     $var wire 32 "= PC $end
     $var wire 1 "U io_EXMEMcomparator $end
     $var wire 1 "Y clock $end
     $var wire 32 "] testHarness_PC $end
     $var wire 1 #Y reset $end
     $var wire 32 #k testHarness_IMEMsetup_address $end
     $var wire 32 $# io_EXMEMPC $end
     $var wire 1 $/ io_EXMEMcontrolSignals_branch $end
     $var wire 32 $9 io_instruction_instruction $end
     $var wire 32 $U _GEN_0 $end
      $scope module IMEM $end
       $var wire 32 N testHarness_setupSignals_instruction $end
       $var wire 12 X instructions__T_20_addr_pipe_0 $end
       $var wire 1 "3 clock $end
       $var wire 32 "t testHarness_setupSignals_address $end
       $var wire 1 #" _GEN_4 $end
       $var wire 32 #- io_instruction $end
       $var wire 1 #I testHarness_setupSignals_setup $end
       $var wire 32 $' addressSource $end
       $var wire 32 $6 testHarness_requestedAddress $end
       $var wire 32 $G io_instructionAddress $end
       $var wire 32 $P instructions $end
        $scope module instructions $end
          $scope module _T_18 $end
           $var wire 1 2 valid $end
           $var wire 1 J mask $end
           $var wire 1 v pipeline_valid_0 $end
           $var wire 12 "F addr $end
           $var wire 1 "I clk $end
           $var wire 32 #4 data $end
           $var wire 12 #9 pipeline_addr_0 $end
           $var wire 32 $: pipeline_data_0 $end
           $var wire 1 $K en $end
          $upscope $end
          $scope module _T_20 $end
           $var wire 1 "1 en $end
           $var wire 12 "k addr $end
           $var wire 1 #1 clk $end
           $var wire 32 #h data $end
          $upscope $end
        $upscope $end
      $upscope $end
    $upscope $end
    $scope module MEMWB $end
     $var wire 1 * io_controlSignalsOut_memRead $end
     $var wire 1 A controlSignals_memWrite $end
     $var wire 1 Q io_controlSignalsIn_regWrite $end
     $var wire 32 T io_aluResultIn $end
     $var wire 1 Z clock $end
     $var wire 32 d io_instructionOut_instruction $end
     $var wire 32 n io_aluResultOut $end
     $var wire 1 "* controlSignals_branch $end
     $var wire 32 "L io_instructionIn_instruction $end
     $var wire 32 "O aluResult $end
     $var wire 1 "R io_controlSignalsIn_memWrite $end
     $var wire 1 "W io_controlSignalsIn_memRead $end
     $var wire 1 "e reset $end
     $var wire 1 "y io_controlSignalsOut_regWrite $end
     $var wire 1 #7 controlSignals_jump $end
     $var wire 1 #? controlSignals_regWrite $end
     $var wire 32 #m io_dataMemOut $end
     $var wire 32 #p io_dataMemIn $end
     $var wire 1 #{ controlSignals_memRead $end
     $var wire 1 #~ io_controlSignalsIn_branch $end
     $var wire 1 $& io_controlSignalsIn_jump $end
     $var wire 32 $Y instruction_instruction $end
    $upscope $end
    $scope module IDEX $end
     $var wire 32 + PC $end
     $var wire 1 - io_controlSignalsIn_branch $end
     $var wire 1 8 io_op1SelectOut $end
     $var wire 1 D io_controlSignalsOut_memWrite $end
     $var wire 32 H ALUop $end
     $var wire 32 K io_PCIn $end
     $var wire 32 _ op2Select $end
     $var wire 32 j branchType $end
     $var wire 32 o immediate $end
     $var wire 3 q io_branchTypeOut $end
     $var wire 32 t io_RegAOut $end
     $var wire 1 x clock $end
     $var wire 1 } controlSignals_branch $end
     $var wire 1 "! _GEN_2 $end
     $var wire 32 "% io_RegAIn $end
     $var wire 1 "8 io_op2SelectIn $end
     $var wire 1 "> io_controlSignalsOut_memRead $end
     $var wire 32 "A op1Select $end
     $var wire 32 "E io_immediateIn $end
     $var wire 3 "J io_branchTypeIn $end
     $var wire 32 "T io_PCOut $end
     $var wire 1 "_ io_controlSignalsIn_regWrite $end
     $var wire 32 "j io_instructionOut_instruction $end
     $var wire 1 "l io_controlSignalsOut_branch $end
     $var wire 1 "n reset $end
     $var wire 4 "p io_ALUopIn $end
     $var wire 1 "r controlSignals_jump $end
     $var wire 1 "z controlSignals_regWrite $end
     $var wire 32 "~ RegB $end
     $var wire 1 #( _GEN_1 $end
     $var wire 1 #/ io_controlSignalsIn_jump $end
     $var wire 1 #6 controlSignals_memRead $end
     $var wire 32 #: instruction_instruction $end
     $var wire 1 #; io_controlSignalsOut_regWrite $end
     $var wire 1 #D io_op1SelectIn $end
     $var wire 32 #H io_immediateOut $end
     $var wire 32 #L io_RegBOut $end
     $var wire 1 #P io_controlSignalsIn_memWrite $end
     $var wire 32 #R RegA $end
     $var wire 1 #U io_controlSignalsIn_memRead $end
     $var wire 32 #[ io_instructionIn_instruction $end
     $var wire 1 #u io_controlSignalsOut_jump $end
     $var wire 4 #z _GEN_3 $end
     $var wire 4 $" io_ALUopOut $end
     $var wire 1 $< io_op2SelectOut $end
     $var wire 32 $@ io_RegBIn $end
     $var wire 3 $I _GEN_0 $end
     $var wire 1 $M controlSignals_memWrite $end
    $upscope $end
    $scope module IFID $end
     $var wire 1 "f clock $end
     $var wire 32 #$ io_PCOut $end
     $var wire 32 #F PC $end
     $var wire 32 #S io_instructionIn_instruction $end
     $var wire 32 #f io_instructionOut_instruction $end
     $var wire 1 #n reset $end
     $var wire 32 $R io_PCIn $end
    $upscope $end
  $upscope $end
$upscope $end
$enddefinitions $end
$dumpvars
0#D
0"c
13
b00000000000000000000000000000000 #h
0$D
b00000000000000000000000000000000 "j
0#c
b00000000000000000000000000000000 $,
0#1
0"P
b000000000000 ?
0"v
0m
b00000 "9
b00000000000000000000000000000000 "4
0~
0"r
0$4
b00000000000000000000000000000000 w
b00000000000000000000000000000000 b
0L
b00000000000000000000000000000000 #w
0#!
b00000000000000000000000000000000 $X
0/
0"#
b00000000000000000000000000000000 $P
b00000000000000000000000000000000 0
0"@
0D
b00000000000000000000000000000000 "G
0"n
0$0
0r
1$J
0#2
b00000000000000000000000000000000 #s
b0000 "<
1#"
b00000000000000000000000000000000 #k
b00000000000000000000000000000000 $7
b00000000000000000000000000000000 #V
0"Q
0#O
b00000000000000000000000000000000 "X
b00000000000000000000000000000000 #$
b00000000000000000000000000000000 "C
0#b
0"l
0p
0$&
0"d
b00000000000000000000000000000000 T
b00000000000000000000000000000000 #i
b000000000000 $%
b00000 #}
1"1
b000 $+
0#^
0$?
0#A
b00000000000000000000000000000000 #e
b00000000000000000000000000000000 $F
0".
b00000000000000000000000000000000 "g
b00000000000000000000000000000000 #H
0`
0"*
b00000000000000000000000000000000 #j
0#P
b00000000000000000000000000000000 t
b00000000000000000000000000000000 _
b00000000000000000000000000000000 "%
b00000000000000000000000000000000 #W
0#~
b00000000000000000000000000000000 #f
b00000000000000000000000000000000 $G
0#a
0$-
b00000000000000000000000000000000 #4
0Z
b00000000000000000000000000000000 [
0#/
b0000 #z
0k
0"_
b000 $I
b00000000000000000000000000000000 $Z
0#_
b000000000000 X
0|
b0000 "p
0-
b00000000000000000000000000000000 $9
0"z
b00000000000000000000000000000000 "w
0$<
b00000000000000000000000000000000 #C
b00000 "5
b00000000000000000000000000000000 #&
b00000000000000000000000000000000 "0
b00000000000000000000000000000000 M
b00000000000000000000000000000000 "E
b00000000000000000000000000000000 #X
0#>
0"Y
b00000000000000000000000000000000 "A
b00000000000000000000000000000000 ",
b00000000000000000000000000000000 ,
0#`
b00000000000000000000000000000000 o
0Y
0"M
0#.
b00000000000000000000000000000000 =
0'
b00000000000000000000000000000000 $3
b00000000000000000000000000000000 "q
b00000 $8
b00000000000000000000000000000000 #R
b00000000000000000000000000000000 "T
b00000000000000000000000000000000 #g
b00000000000000000000000000000000 "?
b000 #3
0"{
0U
b00000 "6
1"N
b00000000000000000000000000000000 N
b00000000000000000000000000000000 #x
08
0#
b00000000000000000000000000000000 "m
0"I
b00000000000000000000000000000000 #F
b00000000000000000000000000000000 $Y
0#{
b00000000000000000000000000000000 $'
b00000 #y
b00000 #\
0"y
0#o
0}
0$;
b00000 #*
0#(
b00000000000000000000000000000000 a
0"\
0#=
1#t
0$L
0y
0$/
0\
b00000000000000000000000000000000 H
b00000000000000000000000000000000 ]
0";
0"&
b00000000000000000000000000000000 +
b00000000000000000000000000000000 $6
b00000000000000000000000000000000 #@
0*
b00000000000000000000000000000000 "t
0G
b00000000000000000000000000000000 ##
b00000000000000000000000000000000 $!
b00000000000000000000000000000000 @
b00000000000000000000000000000000 n
b00000000000000000000000000000000 $O
b00000 "$
b00000000000000000000000000000000 <
0""
0&
b000000000000000000000000000000000000000000000000000000000000000 #N
0$[
b00000 #J
0$>
0$)
b00000000000000000000000000000000 l
0V
b00000 "7
b00000000000000000000000000000000 "2
b00000000000000000000000000000000 O
b00000000000000000000000000000000 :
b00000000000000000000000000000000 #d
b00000000000000000000000000000000 $E
b000 q
0#v
0$W
0#n
0#Y
b00000000000000000000000000000000 "`
b00000000000000000000000000000000 h
0"[
0#'
0#<
b00000000000000000000000000000000 K
05
b00000000000000000000000000000000 $A
b00000000000000000000000000000000 6
0x
0F
b00000000000000000000000000000000 $R
b000000000000 "k
b00000000000000000000000000000000 #q
0#l
b00000 >
0$M
0)
b0000 {
0W
b00000000000000000000000000000000 ;
0%
b00000000000000000000000000000000 $1
0v
0#K
0"U
b00000000000000000000000000000000 "=
0#6
0"8
0!
b00000000000000000000000000000000 #L
b000000000000 "F
b00000000000000000000000000000000 $B
0"f
0#G
b00000000000000000000000000000000 9
0Q
0#;
0"Z
b00000000000000000000000000000000 $U
0"(
b00000000000000000000000000000000 $@
b00000000000000000000000000000000 "~
b00000000000000000000000000000000 $#
b00000000000000000000000000000000 #-
b00000000000000000000000000000000 i
b00000000000000000000000000000000 "a
b00000000000000000000000000000000 "L
b00000000000000000000000000000000 "/
0#7
0E
b00000000000000000000000000000000 $Q
b00000000000000000000000000000000 #[
b00000000000000000000000000000000 #p
0(
0"u
b00000000000000000000000000000000 "]
b00000000000000000000000000000000 "H
b00000000000000000000000000000000 #S
b00000000000000000000000000000000 "+
b00000 "s
0$H
0"i
0#5
0"e
1J
b00000000000000000000000000000000 j
0#)
0"3
07
0"
b00000000000000000000000000000000 $.
b00000000000000000000000000000000 $C
b00000000000000000000000000000000 #M
b00000000000000000000000000000000 "O
b00000000000000000000000000000000 ":
b000000000000 ^
0#B
0e
0P
b00000000000000000000000000000000 f
0#%
b00000000000000000000000000000000 I
b00000000000000000000000000000000 4
b00000000000000000000000000000000 "}
b000000000000 #9
b00000000000000000000000000000000 $*
0"'
b00000000000000000000000000000000 "K
b000 $T
0$S
0#r
0$K
0#U
b00000000000000000000000000000000 d
0"W
0#8
0"B
b00000 "D
01
b00000000000000000000000000000000 $=
0$2
0#Q
b00000000000000000000000000000000 u
0"h
b0000 C
0">
0#I
0B
0"S
0"!
b00000000000000000000000000000000 #m
b0000 #Z
b000 $N
0S
b000 "o
b00000000000000000000000000000000 "V
b000000000000 z
b0000 $"
0$V
b00000000000000000000000000000000 #]
b00000000000000000000000000000000 "|
02
0#u
b00000 #0
b00000000000000000000000000000000 #+
0"b
b00000000000000000000000000000000 R
b00000000000000000000000000000000 g
b00000000000000000000000000000000 "-
0$$
b00000 #E
b00000000000000000000000000000000 #|
0.
b00000000000000000000000000000000 $:
b00000000000000000000000000000000 "x
b000 "J
0$5
0#?
b00000 #,
0"^
0#T
b00000000000000000000000000000000 c
b00000000000000000000000000000000 ")
0s
0"R
0A
b000000000000 $(
0$
b00000000000000000000000000000000 #:
$end
#0
1"n
b11111111111111111111111111111100 g
b1111 #Z
1$V
1P
1"e
1"
b00000000000000000000000000000100 $R
1#n
b1111 C
b00000000000000000000000000000100 $U
b1111 "p
b00000000000000000000000000000001 #s
1#Y
1".
b11111111111111111111111111111100 #w
1$2
#1
1"Y
1$H
1B
1#1
1E
1"(
1"3
1#%
1$?
1#'
1#<
1#v
1"f
1#O
1x
1#
1Z
1"I
1#5
#6
0"f
0"(
0#<
0Z
0"I
0#
0B
0#%
0E
0$?
0#v
0"3
0#5
0#'
0#O
0$H
0"Y
0x
0#1
#11
1"Y
1$H
1B
1#1
1E
1"(
1"3
1#%
1$?
1#'
1#<
1#v
1"f
1#O
1x
1#
1Z
1"I
1#5
#16
0"f
0"(
0#<
0Z
0"I
0#
0B
0#%
0E
0$?
0#v
0"3
0#5
0#'
0#O
0$H
0"Y
0x
0#1
#21
1"Y
1$H
1B
1#1
1E
1"(
1"3
1#%
1$?
1#'
1#<
1#v
1"f
1#O
1x
1#
1Z
1"I
1#5
#26
0"f
0"(
0#<
0Z
0"I
0#
0B
0#%
0E
0$?
0#v
0"3
0#5
0#'
0#O
0$H
0"Y
0x
0#1
#31
1"Y
1$H
1B
1#1
1E
1"(
1"3
1#%
1$?
1#'
1#<
1#v
1"f
1#O
1x
1#
1Z
1"I
1#5
#36
0"f
0"(
0#<
0Z
0"I
0#
0B
0#%
0E
0$?
0#v
0"3
0#5
0#'
0#O
0$H
0"Y
0x
0#1
#41
1"Y
1$H
1B
1#1
1E
1"(
1"3
1#%
1$?
1#'
1#<
1#v
1"f
1#O
1x
1#
1Z
1"I
1#5
#46
0"I
b00000000000000000000000000010011 #S
0B
0$?
b00000000000000000000000000000000 $U
0#v
b0000 C
b0000 "p
0$2
0#5
b00000000000000000000000000010011 #f
1$
0$V
1$;
0x
1";
0#Y
0"f
b00000000000000000000000000010011 ")
1$-
12
b00000000000100000000000010010011 <
b00000000000100000000000010010011 l
0"e
0#O
0"Y
0#1
1$>
0#n
1#A
0"(
0#<
0Z
1#!
1"8
0#%
0"
b00000000000100000000000010010011 #4
1#I
b00000000000000000000000000010011 $9
b0000 #Z
1"_
b00000000000000000000000000010011 #[
b00000000000000000000000000010011 #e
1W
1"!
b00000000000100000000000010010011 #g
b00000000000100000000000010010011 N
0#
1#2
0"n
0E
1"h
1.
0"3
0#'
0$H
1'
1#K
1$K
#51
1"Y
1B
b11111111111111111111111111111100 ;
1#1
b00000000000000000000000000000100 #$
b11111111111111111111111111111100 $#
1"3
b00000000000100000000000010010011 #h
1$?
b00000000000000000000000000000100 K
1$<
1#'
1"z
1#`
1x
1v
1$$
1m
b00000000000000000000000000010011 6
b00000000000100000000000010010011 #-
1$H
1E
1"(
1#%
1#;
b00000000000000000000000000010011 "j
1#<
1""
1#v
1"f
b00000000000000000000000000010011 #:
1#O
1#
1"U
1Z
1"I
b00000000000000000000000000000001 _
b00000000000000000000000000000100 #F
b11111111111111111111111111111100 $,
1#5
b00000000000100000000000010010011 $:
#56
b00000000000000000000000000000100 O
b00000000000000000000000000000100 #k
0"(
0#<
0Z
b00000000000000000000000000010011 #g
0"I
b00000000000000000000000000000100 4
b00000000000000000000000000010011 #4
0B
0#%
0$?
b00000000000000000000000000010011 l
0#v
b00000000000000000000000000010011 N
0#5
0x
0"f
0#
0E
b00000000000000000000000000000100 "t
0"3
b00000000000000000000000000000100 $'
0#'
0#O
0$H
b00000000000000000000000000010011 <
0"Y
0#1
b000000000100 "F
#61
1"Y
1B
1#1
b000000000100 #9
b00000000000000000000000000010011 $!
1"3
b000000000100 X
1$?
b00000000000000000000000000000000 #w
b00000000000000000000000000000100 "T
1#'
1s
1x
1k
1$H
b00000000000000000000000000010011 "?
1E
b00000000000000000000000000010011 #-
1"(
1#%
b00000000000000000000000000010011 "L
b00000000000000000000000000000100 #]
1#<
1#v
1"f
b00000000000000000000000000010011 #h
1Q
1#O
b000000000100 "k
1#
b00000000000000000000000000000100 +
b00000000000000000000000000000000 g
1Z
1"I
b00000000000000000000000000010011 $:
1#5
#66
0"f
0"(
b00000000000000000000000000001000 O
0#<
0Z
0"I
0#
0B
0#%
0E
0$?
0#v
b00000000000000000000000000001000 4
b00000000000000000000000000001000 "t
b00000000000000000000000000001000 #k
b00000000000000000000000000001000 $'
0"3
0#5
0#'
0#O
0$H
0"Y
0x
b000000001000 "F
0#1
#71
1"Y
1B
b000000001000 "k
1#1
1"3
1$?
1"P
1#'
1x
b00000000000000000000000000000000 $#
b00000000000000000000000000010011 d
b000000001000 #9
1$H
1#?
1E
1"(
b00000000000000000000000000010011 $Y
1"y
1#%
b00000000000000000000000000010011 =
b000000001000 X
1#<
1#v
1"f
1#O
b00000000000000000000000000000000 $,
1#
1$L
1Z
1"I
b00000000000000000000000000000000 ;
1#5
#76
0"f
0"(
0#<
0Z
0"I
0#
0B
0#%
0E
0$?
0#v
b000000001100 "F
b00000000000000000000000000001100 4
b00000000000000000000000000001100 #k
0"3
0#5
b00000000000000000000000000001100 O
0#'
0#O
0$H
b00000000000000000000000000001100 $'
0"Y
0x
b00000000000000000000000000001100 "t
0#1
#81
1"Y
1$H
1B
1#1
1E
1"(
1"3
1#%
1$?
b000000001100 #9
1#'
b000000001100 "k
1#<
1#v
1"f
1#O
1x
1#
1Z
1"I
b000000001100 X
1#5
#86
0"f
0"(
0#<
0Z
0"I
0#
0B
b00000000000000000000000000010000 #k
0#%
0E
0$?
0#v
0"3
b00000000000000000000000000010000 $'
0#5
0#'
0#O
0$H
b00000000000000000000000000010000 O
0"Y
0x
b00000000000000000000000000010000 "t
0#1
b000000010000 "F
b00000000000000000000000000010000 4
#91
1"Y
1$H
1B
1#1
1E
1"(
1"3
1#%
1$?
b000000010000 "k
1#'
1#<
1#v
b000000010000 #9
1"f
1#O
1x
1#
1Z
1"I
1#5
b000000010000 X
#96
0"(
0#<
0Z
0"I
b00000000000000000000000000110011 #g
0B
0#%
0$?
0#v
b00000000000000000000000000010100 O
b00000000000000000000000000110011 N
b00000000000000000000000000110011 l
0#5
b000000010100 "F
0x
b00000000000000000000000000110011 #4
b00000000000000000000000000110011 <
b00000000000000000000000000010100 4
0"f
0#
0E
b00000000000000000000000000010100 #k
0"3
0#'
0#O
0$H
b00000000000000000000000000010100 $'
0"Y
0#1
b00000000000000000000000000010100 "t
#101
1"Y
b00000000000000000000000000110011 $:
1$H
1B
1#1
1E
b000000010100 #9
1"(
1"3
1#%
1$?
1#'
1#<
1#v
1"f
b000000010100 "k
1#O
1x
1#
b00000000000000000000000000110011 #-
1Z
1"I
b000000010100 X
1#5
b00000000000000000000000000110011 #h
#106
0"(
0#<
b00000000000000000000000000011000 O
0Z
b00000000000000000000000000010011 #g
0"I
b00000000000000000000000000010011 #4
0B
0#%
0$?
b00000000000000000000000000010011 l
0#v
b00000000000000000000000000011000 #k
b00000000000000000000000000010011 N
0#5
0x
b00000000000000000000000000011000 $'
0"f
0#
b00000000000000000000000000011000 4
0E
0"3
b000000011000 "F
0#'
0#O
0$H
b00000000000000000000000000010011 <
b00000000000000000000000000011000 "t
0"Y
0#1
