waveforms/forward1.s.vcd
$date
2022-10-10T13:40+0000
$end
$version
0.2
$end
$comment

$end
$timescale 1ns  $end
$scope module Tile $end
 $var wire 1 7 io_regsWriteEnable $end
 $var wire 32 8 io_regsReadData $end
 $var wire 32 N io_IMEMAddress $end
 $var wire 1 _ io_regsDeviceWriteEnable $end
 $var wire 32 ", io_DMEMAddress $end
 $var wire 32 "Y io_DMEMWriteData $end
 $var wire 1 "] CPU $end
 $var wire 32 "f io_regsDeviceWriteData $end
 $var wire 5 "k io_regsDeviceWriteAddress $end
 $var wire 1 "{ clock $end
 $var wire 32 ## io_currentPC $end
 $var wire 5 #( io_regsAddress $end
 $var wire 1 #9 io_DMEMWriteEnable $end
 $var wire 32 #: io_memDeviceWriteAddress $end
 $var wire 32 #\ io_IMEMWriteData $end
 $var wire 32 #^ io_memDeviceWriteData $end
 $var wire 32 #| io_DMEMReadData $end
 $var wire 1 $% reset $end
 $var wire 1 $. io_setup $end
 $var wire 1 $7 io_memDeviceWriteEnable $end
 $var wire 32 $L io_regsWriteData $end
  $scope module CPU.EX $end
  $upscope $end
  $scope module CPU.MEM $end
  $upscope $end
  $scope module CPU.IFID $end
  $upscope $end
  $scope module CPU.IDEX $end
  $upscope $end
  $scope module CPU.MEMWB $end
  $upscope $end
  $scope module CPU.ID $end
  $upscope $end
  $scope module CPU.EX.ALU $end
  $upscope $end
  $scope module CPU.ID.registers $end
  $upscope $end
  $scope module CPU.EXMEM $end
  $upscope $end
  $scope module CPU.IF $end
  $upscope $end
  $scope module CPU.IF.IMEM $end
  $upscope $end
  $scope module CPU.EX.Comparator $end
  $upscope $end
  $scope module CPU.MEM.DMEM $end
  $upscope $end
  $scope module CPU.ID.Decoder $end
  $upscope $end
  $scope module CPU $end
   $var wire 32 4 testHarness_setupSignals_IMEMsignals_address $end
   $var wire 32 ; testHarness_setupSignals_IMEMsignals_instruction $end
   $var wire 1 K testHarness_regUpdates_writeEnable $end
   $var wire 1 d ID $end
   $var wire 1 x IDEX $end
   $var wire 1 z MEMWB $end
   $var wire 1 "" testHarness_memUpdates_writeEnable $end
   $var wire 32 "0 testHarness_regUpdates_writeData $end
   $var wire 5 "1 testHarness_regUpdates_writeAddress $end
   $var wire 5 "3 testHarness_setupSignals_registerSignals_readAddress $end
   $var wire 32 "6 testHarness_testReadouts_registerRead $end
   $var wire 32 "C testHarness_currentPC $end
   $var wire 1 "G IF $end
   $var wire 1 "M EXMEM $end
   $var wire 32 "Z testHarness_memUpdates_writeAddress $end
   $var wire 1 "a testHarness_setupSignals_DMEMsignals_setup $end
   $var wire 32 "p testHarness_testReadouts_DMEMread $end
   $var wire 32 "t testHarness_setupSignals_DMEMsignals_dataIn $end
   $var wire 1 "w testHarness_setupSignals_IMEMsignals_setup $end
   $var wire 1 #! IFID $end
   $var wire 1 #3 clock $end
   $var wire 32 #7 testHarness_setupSignals_DMEMsignals_dataAddress $end
   $var wire 1 #A testHarness_setupSignals_registerSignals_setup $end
   $var wire 1 #J MEM $end
   $var wire 1 #a testHarness_setupSignals_registerSignals_writeEnable $end
   $var wire 1 #{ EX $end
   $var wire 32 $5 testHarness_memUpdates_writeData $end
   $var wire 32 $A testHarness_setupSignals_registerSignals_writeData $end
   $var wire 1 $H reset $end
   $var wire 1 $M testHarness_setupSignals_DMEMsignals_writeEnable $end
    $scope module ID $end
     $var wire 1 ! testHarness_registerSetup_writeEnable $end
     $var wire 1 $ io_op2Select $end
     $var wire 1 1 io_controlSignals_memRead $end
     $var wire 32 < io_WBinstruction_instruction $end
     $var wire 4 B io_ALUop $end
     $var wire 1 V io_controlSignals_regWrite $end
     $var wire 32 b testHarness_registerPeek $end
     $var wire 1 "! testHarness_testUpdates_writeEnable $end
     $var wire 32 "$ io_instruction_instruction $end
     $var wire 32 "* testHarness_registerSetup_writeData $end
     $var wire 5 "2 testHarness_testUpdates_writeAddress $end
     $var wire 32 "> io_WBaluResultIn $end
     $var wire 32 "B io_RegB $end
     $var wire 1 "K io_WBcontrolSignals_memRead $end
     $var wire 32 "P io_WBdataMemIn $end
     $var wire 1 "T io_controlSignals_branch $end
     $var wire 1 "U io_controlSignals_memWrite $end
     $var wire 32 "u io_RegA $end
     $var wire 5 #$ testHarness_registerSetup_readAddress $end
     $var wire 1 #& io_controlSignals_jump $end
     $var wire 1 #/ registers $end
     $var wire 1 #g Decoder $end
     $var wire 1 $1 testHarness_registerSetup_setup $end
     $var wire 32 $4 testHarness_testUpdates_writeData $end
     $var wire 32 $6 io_immediate $end
     $var wire 1 $; clock $end
     $var wire 1 $? io_WBcontrolSignals_regWrite $end
      $scope module registers $end
       $var wire 1 ) testHarness_testUpdates_writeEnable $end
       $var wire 1 . testHarness_setup_setup $end
       $var wire 32 9 testHarness_testUpdates_writeData $end
       $var wire 5 = readAddress1 $end
       $var wire 1 D clock $end
       $var wire 32 H io_readData1 $end
       $var wire 32 L registerFile $end
       $var wire 1 U testHarness_setup_writeEnable $end
       $var wire 1 n writeEnable $end
       $var wire 5 } io_readAddress1 $end
       $var wire 5 "5 testHarness_testUpdates_writeAddress $end
       $var wire 1 "J io_writeEnable $end
       $var wire 32 "i testHarness_setup_writeData $end
       $var wire 32 "| io_writeData $end
       $var wire 5 #@ testHarness_setup_readAddress $end
       $var wire 32 #L io_readData2 $end
       $var wire 5 #R writeAddress $end
       $var wire 5 #n io_writeAddress $end
       $var wire 5 #q io_readAddress2 $end
        $scope module registerFile $end
          $scope module _T_33 $end
           $var wire 1 % en $end
           $var wire 1 / pipeline_valid_0 $end
           $var wire 1 A clk $end
           $var wire 5 "? pipeline_addr_0 $end
           $var wire 1 "H mask $end
           $var wire 1 "s valid $end
           $var wire 5 #; addr $end
           $var wire 32 #f pipeline_data_0 $end
           $var wire 32 $8 data $end
          $upscope $end
          $scope module _T_41 $end
           $var wire 32 r data $end
           $var wire 1 "< en $end
           $var wire 1 #, clk $end
           $var wire 5 $+ addr $end
          $upscope $end
          $scope module _T_38 $end
           $var wire 1 "# clk $end
           $var wire 1 "m en $end
           $var wire 5 #" addr $end
           $var wire 32 $& data $end
          $upscope $end
        $upscope $end
      $upscope $end
      $scope module Decoder $end
       $var wire 1 5 io_controlSignals_memWrite $end
       $var wire 1 F io_controlSignals_memRead $end
       $var wire 1 "7 io_op2Select $end
       $var wire 1 #* io_controlSignals_regWrite $end
       $var wire 4 #P io_ALUop $end
       $var wire 32 #Z io_instruction_instruction $end
       $var wire 1 $# decodedControlSignals_1 $end
       $var wire 1 $' io_controlSignals_jump $end
       $var wire 1 $E io_controlSignals_branch $end
       $var wire 3 $F io_immType $end
      $upscope $end
    $upscope $end
    $scope module EXMEM $end
     $var wire 1 " reset $end
     $var wire 1 ( controlSignals_branch $end
     $var wire 32 6 io_instructionIn_instruction $end
     $var wire 32 : io_PCOut $end
     $var wire 1 E io_controlSignalsIn_memWrite $end
     $var wire 1 O io_comparatorIn $end
     $var wire 32 a aluResult $end
     $var wire 32 h io_RegBIn $end
     $var wire 1 i io_controlSignalsOut_regWrite $end
     $var wire 1 p controlSignals_regWrite $end
     $var wire 1 { comparator $end
     $var wire 1 | io_controlSignalsOut_branch $end
     $var wire 32 "; instruction_instruction $end
     $var wire 1 "= controlSignals_memRead $end
     $var wire 1 "W io_controlSignalsIn_memRead $end
     $var wire 1 "[ io_controlSignalsOut_memWrite $end
     $var wire 1 "n io_controlSignalsIn_jump $end
     $var wire 32 "y io_aluResultOut $end
     $var wire 1 #= controlSignals_memWrite $end
     $var wire 1 #E clock $end
     $var wire 1 #U io_comparatorOut $end
     $var wire 1 #V io_controlSignalsIn_branch $end
     $var wire 1 #W io_controlSignalsOut_memRead $end
     $var wire 1 #X io_controlSignalsOut_jump $end
     $var wire 32 #l io_PCIn $end
     $var wire 32 #m RegB $end
     $var wire 32 #p io_aluResultIn $end
     $var wire 32 #s io_instructionOut_instruction $end
     $var wire 1 #v io_controlSignalsIn_regWrite $end
     $var wire 32 #} PC $end
     $var wire 1 $I controlSignals_jump $end
     $var wire 32 $J io_RegBOut $end
    $upscope $end
    $scope module MEM $end
     $var wire 32 0 io_RegB $end
     $var wire 1 X DMEM $end
     $var wire 32 ` testHarness_testUpdates_writeAddress $end
     $var wire 32 "E testHarness_DMEMsetup_dataAddress $end
     $var wire 32 "R io_aluResult $end
     $var wire 32 "` io_dataOut $end
     $var wire 1 #4 testHarness_testUpdates_writeEnable $end
     $var wire 1 #G testHarness_DMEMsetup_writeEnable $end
     $var wire 1 #T io_controlSignals_memWrite $end
     $var wire 32 #Y testHarness_DMEMpeek $end
     $var wire 1 #~ testHarness_DMEMsetup_setup $end
     $var wire 32 $* testHarness_testUpdates_writeData $end
     $var wire 1 $2 clock $end
     $var wire 32 $C testHarness_DMEMsetup_dataIn $end
      $scope module DMEM $end
       $var wire 32 , testHarness_testUpdates_writeData $end
       $var wire 1 3 _GEN_6 $end
       $var wire 12 > data__T_24_addr_pipe_0 $end
       $var wire 1 R testHarness_testUpdates_writeEnable $end
       $var wire 32 \ testHarness_setup_dataAddress $end
       $var wire 12 ] io_dataAddress $end
       $var wire 32 e testHarness_testUpdates_writeAddress $end
       $var wire 32 "& addressSource $end
       $var wire 32 ". data $end
       $var wire 1 "b io_writeEnable $end
       $var wire 1 #5 testHarness_setup_writeEnable $end
       $var wire 1 #8 testHarness_setup_setup $end
       $var wire 1 #k clock $end
       $var wire 32 $$ testHarness_setup_dataIn $end
       $var wire 32 $0 io_dataIn $end
       $var wire 32 $9 io_dataOut $end
        $scope module data $end
          $scope module _T_26 $end
           $var wire 1 # clk $end
           $var wire 12 v addr $end
           $var wire 32 "( pipeline_data_0 $end
           $var wire 1 "\ pipeline_valid_0 $end
           $var wire 32 "o data $end
           $var wire 1 #d en $end
           $var wire 12 #w pipeline_addr_0 $end
           $var wire 1 $( valid $end
           $var wire 1 $= mask $end
          $upscope $end
          $scope module _T_24 $end
           $var wire 32 Q data $end
           $var wire 1 "} clk $end
           $var wire 1 #i en $end
           $var wire 12 #z addr $end
          $upscope $end
        $upscope $end
      $upscope $end
    $upscope $end
    $scope module EX $end
     $var wire 1 & ALU $end
     $var wire 32 ? io_RegA $end
     $var wire 1 T Comparator $end
     $var wire 32 f io_PCOut $end
     $var wire 1 k io_op2Select $end
     $var wire 4 w io_ALUop $end
     $var wire 32 "' io_immediate $end
     $var wire 1 ") io_comparator $end
     $var wire 1 "+ io_controlSignals_jump $end
     $var wire 32 #M io_RegB $end
     $var wire 32 #N io_aluResult $end
     $var wire 32 #S io_PC $end
      $scope module ALU $end
       $var wire 32 Z io_op1 $end
       $var wire 32 t io_aluResult $end
       $var wire 4 "8 io_aluOp $end
       $var wire 63 #D _GEN_0 $end
       $var wire 32 #_ io_op2 $end
      $upscope $end
      $scope module Comparator $end
       $var wire 32 #C io_op2 $end
       $var wire 32 #h io_result $end
       $var wire 32 $! io_op1 $end
      $upscope $end
    $upscope $end
    $scope module IF $end
     $var wire 1 ' testHarness_IMEMsetup_setup $end
     $var wire 1 [ IMEM $end
     $var wire 32 g io_PC $end
     $var wire 32 j testHarness_IMEMsetup_instruction $end
     $var wire 1 o io_EXMEMcontrolSignals_jump $end
     $var wire 32 "9 PC $end
     $var wire 1 "O io_EXMEMcomparator $end
     $var wire 1 "S clock $end
     $var wire 32 "V testHarness_PC $end
     $var wire 1 #O reset $end
     $var wire 32 #` testHarness_IMEMsetup_address $end
     $var wire 32 #u io_EXMEMPC $end
     $var wire 1 $" io_EXMEMcontrolSignals_branch $end
     $var wire 32 $, io_instruction_instruction $end
     $var wire 32 $G _GEN_0 $end
      $scope module IMEM $end
       $var wire 32 M testHarness_setupSignals_instruction $end
       $var wire 12 W instructions__T_20_addr_pipe_0 $end
       $var wire 1 "/ clock $end
       $var wire 32 "l testHarness_setupSignals_address $end
       $var wire 1 "x _GEN_4 $end
       $var wire 32 #% io_instruction $end
       $var wire 1 #? testHarness_setupSignals_setup $end
       $var wire 32 #y addressSource $end
       $var wire 32 $) testHarness_requestedAddress $end
       $var wire 32 $: io_instructionAddress $end
       $var wire 32 $B instructions $end
        $scope module instructions $end
          $scope module _T_18 $end
           $var wire 1 2 valid $end
           $var wire 1 I mask $end
           $var wire 1 s pipeline_valid_0 $end
           $var wire 12 "A addr $end
           $var wire 1 "D clk $end
           $var wire 32 #+ data $end
           $var wire 12 #0 pipeline_addr_0 $end
           $var wire 32 $- pipeline_data_0 $end
           $var wire 1 $> en $end
          $upscope $end
          $scope module _T_20 $end
           $var wire 1 "- en $end
           $var wire 12 "d addr $end
           $var wire 1 #) clk $end
           $var wire 32 #] data $end
          $upscope $end
        $upscope $end
      $upscope $end
    $upscope $end
    $scope module MEMWB $end
     $var wire 1 * io_controlSignalsOut_memRead $end
     $var wire 1 @ controlSignals_memWrite $end
     $var wire 1 P io_controlSignalsIn_regWrite $end
     $var wire 32 S io_aluResultIn $end
     $var wire 1 Y clock $end
     $var wire 32 c io_instructionOut_instruction $end
     $var wire 32 l io_aluResultOut $end
     $var wire 1 "% controlSignals_branch $end
     $var wire 32 "F io_instructionIn_instruction $end
     $var wire 32 "I aluResult $end
     $var wire 1 "L io_controlSignalsIn_memWrite $end
     $var wire 1 "Q io_controlSignalsIn_memRead $end
     $var wire 1 "^ reset $end
     $var wire 1 "q io_controlSignalsOut_regWrite $end
     $var wire 1 #. controlSignals_jump $end
     $var wire 1 #6 controlSignals_regWrite $end
     $var wire 32 #b io_dataMemOut $end
     $var wire 32 #e io_dataMemIn $end
     $var wire 1 #o controlSignals_memRead $end
     $var wire 1 #r io_controlSignalsIn_branch $end
     $var wire 1 #x io_controlSignalsIn_jump $end
     $var wire 32 $K instruction_instruction $end
    $upscope $end
    $scope module IDEX $end
     $var wire 32 + PC $end
     $var wire 1 - io_controlSignalsIn_branch $end
     $var wire 1 C io_controlSignalsOut_memWrite $end
     $var wire 32 G ALUop $end
     $var wire 32 J io_PCIn $end
     $var wire 32 ^ op2Select $end
     $var wire 32 m immediate $end
     $var wire 32 q io_RegAOut $end
     $var wire 1 u clock $end
     $var wire 1 y controlSignals_branch $end
     $var wire 32 ~ io_RegAIn $end
     $var wire 1 "4 io_op2SelectIn $end
     $var wire 1 ": io_controlSignalsOut_memRead $end
     $var wire 32 "@ io_immediateIn $end
     $var wire 32 "N io_PCOut $end
     $var wire 1 "X io_controlSignalsIn_regWrite $end
     $var wire 32 "c io_instructionOut_instruction $end
     $var wire 1 "e io_controlSignalsOut_branch $end
     $var wire 1 "g reset $end
     $var wire 4 "h io_ALUopIn $end
     $var wire 1 "j controlSignals_jump $end
     $var wire 1 "r controlSignals_regWrite $end
     $var wire 32 "v RegB $end
     $var wire 4 "~ _GEN_1 $end
     $var wire 1 #' io_controlSignalsIn_jump $end
     $var wire 1 #- controlSignals_memRead $end
     $var wire 32 #1 instruction_instruction $end
     $var wire 1 #2 io_controlSignalsOut_regWrite $end
     $var wire 32 #> io_immediateOut $end
     $var wire 32 #B io_RegBOut $end
     $var wire 1 #F io_controlSignalsIn_memWrite $end
     $var wire 32 #H RegA $end
     $var wire 1 #K io_controlSignalsIn_memRead $end
     $var wire 32 #Q io_instructionIn_instruction $end
     $var wire 1 #j io_controlSignalsOut_jump $end
     $var wire 4 #t io_ALUopOut $end
     $var wire 1 $/ io_op2SelectOut $end
     $var wire 32 $3 io_RegBIn $end
     $var wire 1 $< _GEN_0 $end
     $var wire 1 $@ controlSignals_memWrite $end
    $upscope $end
    $scope module IFID $end
     $var wire 1 "_ clock $end
     $var wire 32 "z io_PCOut $end
     $var wire 32 #< PC $end
     $var wire 32 #I io_instructionIn_instruction $end
     $var wire 32 #[ io_instructionOut_instruction $end
     $var wire 1 #c reset $end
     $var wire 32 $D io_PCIn $end
    $upscope $end
  $upscope $end
$upscope $end
$enddefinitions $end
$dumpvars
0o
0$%
0R
13
b00000000000000000000000000000000 #h
b00000000000000000000000000000000 #}
0#c
b00000000000000000000000000000000 $,
b00000 #;
b00000000000000000000000000000000 r
b0000 #t
0#W
b00000000000000000000000000000000 "I
b00000000000000000000000000000000 Q
b000000000000000000000000000000000000000000000000000000000000000 #D
0"r
b00000000000000000000000000000000 b
0#!
0D
b00000000000000000000000000000000 0
b00000000000000000000000000000000 #Z
0/
b00000000000000000000000000000000 "y
0"#
b00000000000000000000000000000000 "*
0z
1#i
0#O
0"n
0#2
0"Q
0"<
0@
b00000000000000000000000000000000 $L
b00000000000000000000000000000000 "u
b00000000000000000000000000000000 #s
b00000000000000000000000000000000 "C
b00000000000000000000000000000000 "&
0$.
b00000000000000000000000000000000 q
0#E
0"O
0p
b00000000000000000000000000000000 ?
b00000000000000000000000000000000 $J
0"}
0$?
b00000000000000000000000000000000 m
0$"
0"K
0#,
0O
b00000000000000000000000000000000 e
b00000000000000000000000000000000 #e
0#A
b00000000000000000000000000000000 $)
b00000000000000000000000000000000 #H
b00000000000000000000000000000000 "c
b00000000000000000000000000000000 $K
b000000000000 #0
0$1
b00000 #(
b00000000000000000000000000000000 t
b0000 B
0"=
b00000000000000000000000000000000 "v
b00000000000000000000000000000000 $8
0#~
b00000000000000000000000000000000 $G
b00000000000000000000000000000000 #f
0#a
b00000 #$
0#/
b00000000000000000000000000000000 "6
b00000000000000000000000000000000 S
0k
0"_
b00000000000000000000000000000000 #y
0$@
b00000 "k
b000000000000 "A
b00000000000000000000000000000000 "f
0|
b00000000000000000000000000000000 #u
0-
0$<
b00000000000000000000000000000000 $$
b00000000000000000000000000000000 #C
b00000000000000000000000000000000 $9
0"]
b00000000000000000000000000000000 "E
b00000000000000000000000000000000 "0
b00000000000000000000000000000000 M
b00000 "5
b00000000000000000000000000000000 "(
0"+
b00000000000000000000000000000000 ",
b00000000000000000000000000000000 ^
b00000000000000000000000000000000 "$
b00000000000000000000000000000000 ,
0n
0Y
0#.
0"M
b0000 "8
0'
b00000000000000000000000000000000 $3
b00000000000000000000000000000000 "i
0"{
0U
0#*
b00000000000000000000000000000000 N
0#{
b00000000000000000000000000000000 $D
0#
b00000000000000000000000000000000 #N
b00000000000000000000000000000000 #1
b00000000000000000000000000000000 "P
b000000000000 W
0#o
0$;
b00000000000000000000000000000000 ~
1I
0#=
0"q
0"G
b00000000000000000000000000000000 L
0K
b00000000000000000000000000000000 a
0"\
0#k
0y
0$/
0"X
0"m
0#9
b00000000000000000000000000000000 H
b00000000000000000000000000000000 +
b00000000000000000000000000000000 $6
b00000000000000000000000000000000 $!
b00000000000000000000000000000000 "t
0*
b00000000000000000000000000000000 "B
b00000000000000000000000000000000 ##
b0000 "~
0X
0"L
0"7
0#-
0""
0&
b00000000000000000000000000000000 <
0C
b00000000000000000000000000000000 #Q
b00000000000000000000000000000000 "p
b00000000000000000000000000000000 ">
b00000 $+
0"g
b00000000000000000000000000000000 $&
0$>
0V
b00000000000000000000000000000000 l
0"J
b00000000000000000000000000000000 :
0#v
b00000000000000000000000000000000 "`
b00000000000000000000000000000000 h
0"[
b00000 "3
b00000000000000000000000000000000 `
b00000000000000000000000000000000 ".
05
0")
b00000000000000000000000000000000 #`
0#'
b00000000000000000000000000000000 $A
b00000000000000000000000000000000 6
0x
0[
0F
0":
0)
b00000000000000000000000000000000 $5
0$M
b0000 "h
b00000000000000000000000000000000 ;
b0000 w
b00000 #@
0$I
0%
0"j
b00000000000000000000000000000000 "R
0#6
b00000000000000000000000000000000 "o
0"U
b00000000000000000000000000000000 Z
0#K
b000000000000 v
b000 $F
b00000000000000000000000000000000 $B
0$E
b00000000000000000000000000000000 #L
b00000000000000000000000000000000 $-
0#G
0$(
b00000000000000000000000000000000 "9
0!
b00000000000000000000000000000000 "N
0"4
0#d
b00000000000000000000000000000000 9
0"w
0#X
0{
0#&
b00000000000000000000000000000000 J
b00000000000000000000000000000000 #_
1"-
b00000000000000000000000000000000 #B
b00000000000000000000000000000000 #%
b000000000000 >
1"x
0E
b00000000000000000000000000000000 #p
b00000000000000000000000000000000 #[
b00000000000000000000000000000000 "z
b00000 =
0(
b00000000000000000000000000000000 $4
0#V
b00000000000000000000000000000000 #>
b00000000000000000000000000000000 #S
b00000000000000000000000000000000 "@
0$7
0$H
0#g
0u
0#J
0#5
b00000 #"
0"T
b00000000000000000000000000000000 "'
0#x
0"e
b000000000000 #w
0i
0$'
0#)
0T
b00000000000000000000000000000000 j
07
b00000 #R
b00000000000000000000000000000000 "l
b00000000000000000000000000000000 #M
b00000000000000000000000000000000 8
b00000000000000000000000000000000 $C
b00000000000000000000000000000000 #b
b000000000000 "d
0"
0#F
0"a
0$#
1$=
0P
0"D
0"/
b00000 "1
b00000000000000000000000000000000 4
b00000000000000000000000000000000 #^
b00000000000000000000000000000000 #I
b00000000000000000000000000000000 $*
b00000000000000000000000000000000 f
0#r
0#j
0#U
0"W
0#8
b00000000000000000000000000000000 \
b00000000000000000000000000000000 G
01
0"%
b00000000000000000000000000000000 #\
0$2
0_
b000000000000 #z
0#4
0"S
b00000000000000000000000000000000 ";
b00000000000000000000000000000000 #m
0"!
b00000000000000000000000000000000 "Z
b00000 }
b00000 #n
b00000000000000000000000000000000 "V
b00000000000000000000000000000000 #7
b000000000000 ]
0d
1"H
02
b00000000000000000000000000000000 "|
b00000000000000000000000000000000 #]
0"b
b00000000000000000000000000000000 #+
b00000000000000000000000000000000 g
b00000 "2
b00000000000000000000000000000000 #|
0.
b00000000000000000000000000000000 #Y
b00000000000000000000000000000000 $:
0"s
0#?
0#T
0"^
b00000000000000000000000000000000 "F
b00000000000000000000000000000000 c
b00000000000000000000000000000000 #<
b0000 #P
0s
0#3
b00000 "?
b00000 #q
b00000000000000000000000000000000 #l
0A
0$
b00000000000000000000000000000000 $0
b00000000000000000000000000000000 "Y
b00000000000000000000000000000000 #:
$end
#0
1$%
1#O
b1111 B
1O
1"
b1111 #P
1"g
1"^
b00000000000000000000000000000001 #h
1#c
1")
b00000000000000000000000000000100 $G
1$H
b1111 "h
#1
1$;
1"_
1$2
1#k
1D
1#,
1"/
1#)
1A
1"{
1#
1"D
1"S
1"}
1"#
1u
1#3
1Y
1#E
#6
0D
0"}
0#
0"D
0$;
0"{
0#k
0#E
0"_
0#)
0#3
0"/
0u
0"#
0#,
0Y
0$2
0A
0"S
#11
1$;
1"_
1$2
1#k
1D
1#,
1"/
1#)
1A
1"{
1#
1"D
1"S
1"}
1"#
1u
1#3
1Y
1#E
#16
0D
0"}
0#
0"D
0$;
0"{
0#k
0#E
0"_
0#)
0#3
0"/
0u
0"#
0#,
0Y
0$2
0A
0"S
#21
1$;
1"_
1$2
1#k
1D
1#,
1"/
1#)
1A
1"{
1#
1"D
1"S
1"}
1"#
1u
1#3
1Y
1#E
#26
0D
0"}
0#
0"D
0$;
0"{
0#k
0#E
0"_
0#)
0#3
0"/
0u
0"#
0#,
0Y
0$2
0A
0"S
#31
1$;
1"_
1$2
1#k
1D
1#,
1"/
1#)
1A
1"{
1#
1"D
1"S
1"}
1"#
1u
1#3
1Y
1#E
#36
0D
0"}
0#
0"D
0$;
0"{
0#k
0#E
0"_
0#)
0#3
0"/
0u
0"#
0#,
0Y
0$2
0A
0"S
#41
1$;
1"_
1$2
1#k
1D
1#,
1"/
1#)
1A
1"{
1#
1"D
1"S
1"}
1"#
1u
1#3
1Y
1#E
#46
0"^
1$.
b00000000000000000000000000010011 $,
0u
1"7
b0000 #P
1"a
b0000 B
0"g
0#c
1$
0"}
0$H
0#
0$;
1.
b00011010111000001011000110010011 #+
0#k
0#E
0"_
0"/
0#,
12
0$%
b0000 "h
1V
1#?
b00011010111000001011000110010011 j
1#8
b00011010111000001011000110010011 #\
0#O
b00000000000000000000000000010011 #I
0"{
b00000000000000000000000000010011 #[
1$<
0#)
0#3
b00000000000000000000000000010011 #Z
b00011010111000001011000110010011 ;
0"#
1"w
1"X
b00000000000000000000000000010011 #Q
0$2
1"4
0A
b00000000000000000000000000010011 "$
0D
1#A
0"D
1'
1#~
0"
b00000000000000000000000000000000 $G
1$>
1$1
0Y
1#*
b00011010111000001011000110010011 M
0"S
#51
1$;
1$2
1#U
1k
1D
1"r
1"/
1#)
1A
1"D
1#
1#2
b00000000000000000000000000010011 6
b00011010111000001011000110010011 #]
1#3
1s
b00011010111000001011000110010011 $-
1#E
b00011010111000001011000110010011 #%
1"O
1{
1"_
1#k
1#,
b00000000000000000000000000010011 "c
1"{
1"S
1"}
1"#
b00000000000000000000000000010011 #1
b00000000000000000000000000000001 ^
1u
1#v
1Y
1$/
#56
b00000000000000000000000000010011 M
0"{
0#)
0#3
0u
0"#
0$2
0A
b00000000000000000000000000000100 "l
0D
0"}
b00000000000000000000000000010011 ;
b00000000000000000000000000000100 #y
b00000000000000000000000000000100 #`
0#
0"D
0$;
b00000000000000000000000000000100 N
b00000000000000000000000000010011 j
0#k
0#E
0"_
0"/
0#,
0Y
b00000000000000000000000000010011 #+
b00000000000000000000000000010011 #\
b000000000100 "A
0"S
b00000000000000000000000000000100 4
#61
1$;
1$2
b00000000000000000000000000010011 #]
1D
1"/
1#)
1A
1"D
1#
1P
b00000000000000000000000000010011 "F
1i
b00000000000000000000000000010011 $-
1p
b000000000100 W
1#3
b00000000000000000000000000010011 #s
1#E
b00000000000000000000000000010011 #%
1"_
b000000000100 "d
1#k
1#,
1"{
1"S
1"}
1"#
b000000000100 #0
1u
1Y
b00000000000000000000000000010011 ";
#66
b000000001000 "A
0D
0"}
b00000000000000000000000000001000 "l
0#
0"D
0$;
b00000000000000000000000000001000 4
0"{
0#k
0#E
0"_
0#)
0#3
0"/
0u
0"#
0#,
0Y
b00000000000000000000000000001000 #y
b00000000000000000000000000001000 #`
0$2
0A
0"S
b00000000000000000000000000001000 N
#71
b00000000000000000000000000010011 <
1$;
b000000001000 W
1$2
1D
1"/
1#)
1A
1"D
1#
b000000001000 "d
b000000001000 #0
b00000000000000000000000000010011 c
1#3
1#E
b00000000000000000000000000010011 $K
1"_
1#k
1#6
1#,
1$?
1"{
1"S
1"}
1"q
1"#
1u
1Y
1"J
#76
0D
0"}
0#
0"D
0$;
0"{
0#k
0#E
0"_
0#)
0#3
0"/
0u
0"#
0#,
b00000000000000000000000000001100 N
b00000000000000000000000000001100 "l
b00000000000000000000000000001100 #`
0Y
b000000001100 "A
0$2
0A
0"S
b00000000000000000000000000001100 4
b00000000000000000000000000001100 #y
#81
1$;
1"_
1$2
1#k
1D
1#,
1"/
1#)
1A
1"{
b000000001100 #0
1#
1"D
1"S
1"}
1"#
b000000001100 "d
b000000001100 W
1u
1#3
1Y
1#E
#86
0D
0"}
0#
0"D
0$;
0"{
0#k
b00000000000000000000000000010000 4
0#E
0"_
0#)
0#3
0"/
0u
0"#
0#,
b00000000000000000000000000010000 "l
b000000010000 "A
0Y
b00000000000000000000000000010000 #`
0$2
b00000000000000000000000000010000 #y
b00000000000000000000000000010000 N
0A
0"S
#91
1$;
1"_
b000000010000 #0
1$2
1#k
1D
1#,
1"/
1#)
1A
1"{
1#
1"D
1"S
1"}
1"#
1u
b000000010000 W
1#3
b000000010000 "d
1Y
1#E
#96
b00000000000000000000000000010100 N
0"{
b00000000000000000000000000010100 #`
0#)
0#3
b00000000010100010101000100010011 j
0u
0"#
b00000000000000000000000000010100 "l
0$2
0A
b00000000010100010101000100010011 #+
0D
0"}
b00000000000000000000000000010100 #y
0#
0"D
0$;
0#k
b00000000010100010101000100010011 M
0#E
0"_
0"/
0#,
0Y
b00000000000000000000000000010100 4
b00000000010100010101000100010011 #\
b00000000010100010101000100010011 ;
b000000010100 "A
0"S
#101
1$;
1"_
1$2
1#k
b00000000010100010101000100010011 #]
b000000010100 #0
b00000000010100010101000100010011 $-
1D
1#,
1"/
1#)
1A
1"{
1#
1"D
1"S
1"}
1"#
b000000010100 W
1u
1#3
b000000010100 "d
1Y
1#E
b00000000010100010101000100010011 #%
#106
b00000000000000000000000000011000 #y
b00000000000000000000000000010011 M
0"{
0#)
0#3
0u
0"#
0$2
b00000000000000000000000000011000 N
0A
0D
0"}
b00000000000000000000000000010011 ;
0#
0"D
0$;
b00000000000000000000000000011000 4
b00000000000000000000000000011000 #`
b000000011000 "A
b00000000000000000000000000010011 j
0#k
0#E
0"_
0"/
0#,
0Y
b00000000000000000000000000010011 #+
b00000000000000000000000000011000 "l
b00000000000000000000000000010011 #\
0"S
#111
b000000011000 "d
1$;
1"_
b000000011000 W
1$2
1#k
b00000000000000000000000000010011 #]
1D
1#,
1"/
1#)
1A
1"{
1#
1"D
1"S
1"}
1"#
b00000000000000000000000000010011 $-
b000000011000 #0
1u
1#3
1Y
1#E
b00000000000000000000000000010011 #%
#116
0D
0"}
0#
0"D
0$;
0"{
0#k
0#E
0"_
b00000000000000000000000000011100 #y
0#)
0#3
b00000000000000000000000000011100 N
b00000000000000000000000000011100 #`
0"/
0u
0"#
0#,
0Y
b000000011100 "A
0$2
b00000000000000000000000000011100 4
b00000000000000000000000000011100 "l
0A
0"S
#121
1$;
1"_
1$2
1#k
1D
1#,
1"/
1#)
1A
1"{
1#
b000000011100 W
1"D
1"S
1"}
1"#
b000000011100 #0
1u
1#3
1Y
b000000011100 "d
1#E
#126
0D
0"}
b000000100000 "A
0#
0"D
0$;
0"{
b00000000000000000000000000100000 "l
0#k
0#E
0"_
0#)
0#3
0"/
b00000000000000000000000000100000 N
0u
0"#
0#,
b00000000000000000000000000100000 #y
0Y
b00000000000000000000000000100000 #`
0$2
b00000000000000000000000000100000 4
0A
0"S
#131
1$;
1"_
1$2
b000000100000 #0
1#k
1D
1#,
1"/
1#)
1A
1"{
1#
1"D
b000000100000 W
1"}
1"S
1"#
1u
1#3
1Y
1#E
b000000100000 "d
