waveforms/memoFib.s.vcd
$date
2022-09-20T12:43+0000
$end
$version
0.2
$end
$comment

$end
$timescale 1ns  $end
$scope module Tile $end
 $var wire 1 * io_regsWriteEnable $end
 $var wire 32 + io_regsReadData $end
 $var wire 32 4 io_IMEMAddress $end
 $var wire 1 < io_regsDeviceWriteEnable $end
 $var wire 32 I io_DMEMAddress $end
 $var wire 32 Z io_DMEMWriteData $end
 $var wire 1 ] CPU $end
 $var wire 32 _ io_regsDeviceWriteData $end
 $var wire 5 a io_regsDeviceWriteAddress $end
 $var wire 1 i clock $end
 $var wire 32 l io_currentPC $end
 $var wire 5 m io_regsAddress $end
 $var wire 1 u io_DMEMWriteEnable $end
 $var wire 32 v io_memDeviceWriteAddress $end
 $var wire 32 ~ io_IMEMWriteData $end
 $var wire 32 "! io_memDeviceWriteData $end
 $var wire 32 ") io_DMEMReadData $end
 $var wire 1 ", reset $end
 $var wire 1 "2 io_setup $end
 $var wire 1 "7 io_memDeviceWriteEnable $end
 $var wire 32 "A io_regsWriteData $end
  $scope module CPU.MEM $end
  $upscope $end
  $scope module CPU.ID.registers $end
  $upscope $end
  $scope module CPU.IF $end
  $upscope $end
  $scope module CPU.IF.IMEM $end
  $upscope $end
  $scope module CPU.MEM.DMEM $end
  $upscope $end
  $scope module CPU $end
   $var wire 1 2 testHarness_regUpdates_writeEnable $end
   $var wire 1 > ID $end
   $var wire 1 D testHarness_memUpdates_writeEnable $end
   $var wire 32 K testHarness_regUpdates_writeData $end
   $var wire 5 L testHarness_regUpdates_writeAddress $end
   $var wire 5 M testHarness_setupSignals_registerSignals_readAddress $end
   $var wire 32 P testHarness_testReadouts_registerRead $end
   $var wire 32 T testHarness_currentPC $end
   $var wire 1 W IF $end
   $var wire 32 [ testHarness_memUpdates_writeAddress $end
   $var wire 1 ^ testHarness_setupSignals_DMEMsignals_setup $end
   $var wire 32 d testHarness_testReadouts_DMEMread $end
   $var wire 32 f testHarness_setupSignals_DMEMsignals_dataIn $end
   $var wire 1 g testHarness_setupSignals_IMEMsignals_setup $end
   $var wire 1 q clock $end
   $var wire 32 s testHarness_setupSignals_DMEMsignals_dataAddress $end
   $var wire 1 x testHarness_setupSignals_registerSignals_setup $end
   $var wire 1 { MEM $end
   $var wire 1 "" testHarness_setupSignals_registerSignals_writeEnable $end
   $var wire 32 "6 testHarness_memUpdates_writeData $end
   $var wire 32 "= testHarness_setupSignals_registerSignals_writeData $end
   $var wire 1 "@ reset $end
   $var wire 1 "B testHarness_setupSignals_DMEMsignals_writeEnable $end
    $scope module MEM $end
     $var wire 1 8 DMEM $end
     $var wire 32 ; testHarness_testUpdates_writeAddress $end
     $var wire 32 U testHarness_DMEMsetup_dataAddress $end
     $var wire 1 p testHarness_testUpdates_writeEnable $end
     $var wire 1 z testHarness_DMEMsetup_writeEnable $end
     $var wire 32 } testHarness_DMEMpeek $end
     $var wire 1 "* testHarness_DMEMsetup_setup $end
     $var wire 32 "0 testHarness_testUpdates_writeData $end
     $var wire 1 "4 clock $end
     $var wire 32 "> testHarness_DMEMsetup_dataIn $end
      $scope module DMEM $end
       $var wire 32 & testHarness_testUpdates_writeData $end
       $var wire 1 ) _GEN_6 $end
       $var wire 12 - data__T_24_addr_pipe_0 $end
       $var wire 1 6 testHarness_testUpdates_writeEnable $end
       $var wire 32 : testHarness_setup_dataAddress $end
       $var wire 32 ? testHarness_testUpdates_writeAddress $end
       $var wire 32 F addressSource $end
       $var wire 32 J data $end
       $var wire 1 r testHarness_setup_writeEnable $end
       $var wire 1 t testHarness_setup_setup $end
       $var wire 1 "& clock $end
       $var wire 32 "+ testHarness_setup_dataIn $end
       $var wire 32 "9 io_dataOut $end
        $scope module data $end
          $scope module _T_26 $end
           $var wire 1 ! clk $end
           $var wire 12 B addr $end
           $var wire 32 G pipeline_data_0 $end
           $var wire 1 \ pipeline_valid_0 $end
           $var wire 32 c data $end
           $var wire 1 "# en $end
           $var wire 12 "' pipeline_addr_0 $end
           $var wire 1 "- valid $end
           $var wire 1 "< mask $end
          $upscope $end
          $scope module _T_24 $end
           $var wire 32 5 data $end
           $var wire 1 h clk $end
           $var wire 1 "% en $end
           $var wire 12 "( addr $end
          $upscope $end
        $upscope $end
      $upscope $end
    $upscope $end
    $scope module ID $end
     $var wire 1 " testHarness_registerSetup_writeEnable $end
     $var wire 32 = testHarness_registerPeek $end
     $var wire 1 C testHarness_testUpdates_writeEnable $end
     $var wire 32 H testHarness_registerSetup_writeData $end
     $var wire 5 N testHarness_testUpdates_writeAddress $end
     $var wire 5 k testHarness_registerSetup_readAddress $end
     $var wire 1 o registers $end
     $var wire 1 "3 testHarness_registerSetup_setup $end
     $var wire 32 "5 testHarness_testUpdates_writeData $end
     $var wire 1 ": clock $end
      $scope module registers $end
       $var wire 1 % testHarness_testUpdates_writeEnable $end
       $var wire 1 ' testHarness_setup_setup $end
       $var wire 32 , testHarness_testUpdates_writeData $end
       $var wire 5 . readAddress1 $end
       $var wire 1 0 clock $end
       $var wire 32 1 io_readData1 $end
       $var wire 32 3 registerFile $end
       $var wire 1 7 testHarness_setup_writeEnable $end
       $var wire 1 @ writeEnable $end
       $var wire 5 O testHarness_testUpdates_writeAddress $end
       $var wire 32 ` testHarness_setup_writeData $end
       $var wire 5 y testHarness_setup_readAddress $end
        $scope module registerFile $end
          $scope module _T_33 $end
           $var wire 1 # en $end
           $var wire 1 ( pipeline_valid_0 $end
           $var wire 1 / clk $end
           $var wire 5 S pipeline_addr_0 $end
           $var wire 1 V mask $end
           $var wire 1 e valid $end
           $var wire 5 w addr $end
           $var wire 32 "$ pipeline_data_0 $end
           $var wire 32 "8 data $end
          $upscope $end
          $scope module _T_41 $end
           $var wire 32 A data $end
           $var wire 1 R en $end
           $var wire 1 n clk $end
           $var wire 5 "1 addr $end
          $upscope $end
          $scope module _T_38 $end
           $var wire 1 E clk $end
           $var wire 1 b en $end
           $var wire 5 j addr $end
           $var wire 32 ". data $end
          $upscope $end
        $upscope $end
      $upscope $end
    $upscope $end
    $scope module IF $end
     $var wire 1 $ testHarness_IMEMsetup_setup $end
     $var wire 1 9 IMEM $end
     $var wire 32 Q PC $end
     $var wire 1 X clock $end
     $var wire 32 Y testHarness_PC $end
     $var wire 1 | reset $end
     $var wire 32 "? _GEN_0 $end
      $scope module IMEM $end
       $var wire 32 "/ testHarness_requestedAddress $end
       $var wire 32 "; io_instructionAddress $end
      $upscope $end
    $upscope $end
  $upscope $end
  $scope module CPU.ID $end
  $upscope $end
$upscope $end
$enddefinitions $end
$dumpvars
b00000000000000000000000000000000 Y
0C
0"7
1"<
0""
0X
b00000000000000000000000000000000 ">
0o
0R
b00000000000000000000000000000000 "8
b00000000000000000000000000000000 l
b00000000000000000000000000000000 :
b00000000000000000000000000000000 Q
b00000000000000000000000000000000 }
0g
b00000000000000000000000000000000 `
b00000000000000000000000000000000 K
b00000000000000000000000000000000 ".
b000000000000 "(
0"@
0D
0/
0"#
0x
0":
b00000 S
0z
b00000000000000000000000000000000 s
0r
1)
0]
b00000 j
b00000000000000000000000000000000 A
0@
0W
b00000 O
0%
b00000000000000000000000000000000 ;
b000000000000 -
b00000000000000000000000000000000 "=
b00000000000000000000000000000000 Z
0p
b00000000000000000000000000000000 T
b00000000000000000000000000000000 ?
0>
0"2
06
0!
b00000 .
b00000000000000000000000000000000 "9
0"4
b00000 y
b00000000000000000000000000000000 P
b00000000000000000000000000000000 3
0{
b00000000000000000000000000000000 "5
b00000000000000000000000000000000 J
b000000000000 "'
b00000000000000000000000000000000 "/
0"*
0b
0E
00
0(
b00000000000000000000000000000000 "+
b00000000000000000000000000000000 _
1V
0u
b00000000000000000000000000000000 [
b00000000000000000000000000000000 "6
b00000000000000000000000000000000 "!
0q
0i
b00000000000000000000000000000000 U
0"3
b00000 a
07
0"
b00000 L
09
0"-
0e
b00000000000000000000000000000000 f
b00000 "1
b00000000000000000000000000000000 I
b00000000000000000000000000000000 4
0|
b00000000000000000000000000000000 "0
b00000000000000000000000000000000 d
0"B
b00000000000000000000000000000000 G
b00000000000000000000000000000000 "A
b00000000000000000000000000000000 "$
b00000000000000000000000000000000 ,
b00000 M
0t
b00000000000000000000000000000000 ";
b00000000000000000000000000000000 &
0n
b00000000000000000000000000000000 =
0'
0<
b00000000000000000000000000000000 "?
b00000 w
08
0#
0",
02
b000000000000 B
b00000000000000000000000000000000 5
b00000000000000000000000000000000 ~
0h
b00000 m
b00000000000000000000000000000000 c
b00000000000000000000000000000000 ")
b00000000000000000000000000000000 F
b00000000000000000000000000000000 1
0\
b00000000000000000000000000000000 H
0"&
0*
b00000000000000000000000000000000 +
0^
b00000 k
b00000 N
0$
1"%
b00000000000000000000000000000000 v
$end
#0
1",
1|
1"@
#1
1i
1"&
10
1E
1h
1!
1"4
1n
1":
1X
1/
1q
#6
0"4
0h
0/
0!
0":
0i
0n
0E
00
0X
0"&
0q
#11
1i
1"&
10
1E
1h
1!
1"4
1n
1":
1X
1/
1q
#16
0"4
0h
0/
0!
0":
0i
0n
0E
00
0X
0"&
0q
#21
1i
1"&
10
1E
1h
1!
1"4
1n
1":
1X
1/
1q
#26
0"4
0h
0/
0!
0":
0i
0n
0E
00
0X
0"&
0q
#31
1i
1"&
10
1E
1h
1!
1"4
1n
1":
1X
1/
1q
#36
0"4
0h
0/
0!
0":
0i
0n
0E
00
0X
0"&
0q
#41
1i
1"&
10
1E
1h
1!
1"4
1n
1":
1X
1/
1q
#46
0"4
0h
1"3
0/
1x
1$
0":
0"@
0E
1t
0q
1^
b11111110000000010000000100010011 ~
1'
1"*
1g
0!
0|
0i
0n
00
0X
1"2
0"&
0",
#51
1i
1"&
10
1E
1h
1!
1"4
1n
1":
1X
1/
1q
#56
0"4
0h
0/
0":
0E
0q
b00000000000000000000000000000100 4
0!
b00000000000000000000000000010011 ~
0i
0n
00
0X
0"&
#61
1i
1"&
10
1E
1h
1!
1"4
1n
1":
1X
1/
1q
#66
0"4
0h
0/
0!
0":
0i
0n
0E
00
0X
b00000000000000000000000000001000 4
0"&
0q
#71
1i
1"&
10
1E
1h
1!
1"4
1n
1":
1X
1/
1q
#76
0"4
0h
0/
0!
0":
0i
0n
0E
00
0X
0"&
0q
b00000000000000000000000000001100 4
#81
1i
1"&
10
1E
1h
1!
1"4
1n
1":
1X
1/
1q
#86
0"4
0h
0/
b00000000000000000000000000010000 4
0!
0":
0i
0n
0E
00
0X
0"&
0q
#91
1i
1"&
10
1E
1h
1!
1"4
1n
1":
1X
1/
1q
#96
0"4
0h
0/
b00000000000000000000000000010100 4
b00000000000100010010111000100011 ~
0":
0E
0q
0!
0i
0n
00
0X
0"&
#101
1i
1"&
10
1E
1h
1!
1"4
1n
1":
1X
1/
1q
#106
0"4
0h
0/
0":
0E
0q
b00000000000000000000000000011000 4
0!
b00000000000000000000000000010011 ~
0i
0n
00
0X
0"&
#111
1i
1"&
10
1E
1h
1!
1"4
1n
1":
1X
1/
1q
#116
0"4
0h
0/
0!
0":
0i
0n
0E
00
0X
0"&
0q
b00000000000000000000000000011100 4
#121
1i
1"&
10
1E
1h
1!
1"4
1n
1":
1X
1/
1q
#126
0"4
0h
0/
b00000000000000000000000000100000 4
0!
0":
0i
0n
0E
00
0X
0"&
0q
#131
1i
1"&
10
1E
1h
1!
1"4
1n
1":
1X
1/
1q
#136
0"4
0h
0/
b00000000000000000000000000100100 4
0!
0":
0i
0n
0E
00
0X
0"&
0q
#141
1i
1"&
10
1E
1h
1!
1"4
1n
1":
1X
1/
1q
#146
0"4
0h
0/
0":
0E
b00000000100000010010110000100011 ~
0q
0!
b00000000000000000000000000101000 4
0i
0n
00
0X
0"&
#151
1i
1"&
10
1E
1h
1!
1"4
1n
1":
1X
1/
1q
#156
0"4
0h
0/
0":
0E
0q
0!
b00000000000000000000000000010011 ~
0i
0n
00
0X
b00000000000000000000000000101100 4
0"&
#161
1i
1"&
10
1E
1h
1!
1"4
1n
1":
1X
1/
1q
#166
0"4
0h
0/
b00000000000000000000000000110000 4
0!
0":
0i
0n
0E
00
0X
0"&
0q
#171
1i
1"&
10
1E
1h
1!
1"4
1n
1":
1X
1/
1q
#176
0"4
0h
0/
0!
0":
0i
0n
0E
00
0X
b00000000000000000000000000110100 4
0"&
0q
#181
1i
1"&
10
1E
1h
1!
1"4
1n
1":
1X
1/
1q
#186
0"4
0h
0/
b00000000000000000000000000111000 4
0!
0":
0i
0n
0E
00
0X
0"&
0q
#191
1i
1"&
10
1E
1h
1!
1"4
1n
1":
1X
1/
1q
#196
0"4
b00000010000000010000010000010011 ~
0h
0/
0":
0E
b00000000000000000000000000111100 4
0q
0!
0i
0n
00
0X
0"&
#201
1i
1"&
10
1E
1h
1!
1"4
1n
1":
1X
1/
1q
#206
0"4
0h
0/
0":
0E
0q
b00000000000000000000000001000000 4
0!
b00000000000000000000000000010011 ~
0i
0n
00
0X
0"&
#211
1i
1"&
10
1E
1h
1!
1"4
1n
1":
1X
1/
1q
#216
0"4
0h
0/
0!
0":
0i
0n
0E
00
0X
b00000000000000000000000001000100 4
0"&
0q
#221
1i
1"&
10
1E
1h
1!
1"4
1n
1":
1X
1/
1q
#226
0"4
0h
0/
b00000000000000000000000001001000 4
0!
0":
0i
0n
0E
00
0X
0"&
0q
#231
1i
1"&
10
1E
1h
1!
1"4
1n
1":
1X
1/
1q
#236
0"4
0h
0/
0!
0":
0i
0n
0E
00
0X
0"&
b00000000000000000000000001001100 4
0q
#241
1i
1"&
10
1E
1h
1!
1"4
1n
1":
1X
1/
1q
#246
0"4
0h
0/
b00000000000000000000000001010000 4
0":
0E
0q
b11111110000001000010011000100011 ~
0!
0i
0n
00
0X
0"&
#251
1i
1"&
10
1E
1h
1!
1"4
1n
1":
1X
1/
1q
#256
0"4
0h
0/
0":
b00000000000000000000000001010100 4
0E
0q
0!
b00000000000000000000000000010011 ~
0i
0n
00
0X
0"&
#261
1i
1"&
10
1E
1h
1!
1"4
1n
1":
1X
1/
1q
#266
0"4
b00000000000000000000000001011000 4
0h
0/
0!
0":
0i
0n
0E
00
0X
0"&
0q
#271
1i
1"&
10
1E
1h
1!
1"4
1n
1":
1X
1/
1q
#276
0"4
0h
0/
b00000000000000000000000001011100 4
0!
0":
0i
0n
0E
00
0X
0"&
0q
#281
1i
1"&
10
1E
1h
1!
1"4
1n
1":
1X
1/
1q
#286
0"4
0h
0/
0!
0":
0i
0n
0E
00
0X
0"&
0q
b00000000000000000000000001100000 4
#291
1i
1"&
10
1E
1h
1!
1"4
1n
1":
1X
1/
1q
#296
0"4
0h
0/
b00000000000000000000000001100100 4
0":
0E
0q
b00000110010000000000011110010011 ~
0!
0i
0n
00
0X
0"&
#301
1i
1"&
10
1E
1h
1!
1"4
1n
1":
1X
1/
1q
#306
0"4
0h
0/
0":
0E
0q
b00000000000000000000000001101000 4
0!
b00000000000000000000000000010011 ~
0i
0n
00
0X
0"&
#311
1i
1"&
10
1E
1h
1!
1"4
1n
1":
1X
1/
1q
#316
0"4
0h
0/
b00000000000000000000000001101100 4
0!
0":
0i
0n
0E
00
0X
0"&
0q
#321
1i
1"&
10
1E
1h
1!
1"4
1n
1":
1X
1/
1q
#326
0"4
0h
0/
0!
0":
0i
0n
0E
00
0X
b00000000000000000000000001110000 4
0"&
0q
#331
1i
1"&
10
1E
1h
1!
1"4
1n
1":
1X
1/
1q
#336
0"4
0h
0/
b00000000000000000000000001110100 4
0!
0":
0i
0n
0E
00
0X
0"&
0q
#341
1i
1"&
10
1E
1h
1!
1"4
1n
1":
1X
1/
1q
#346
0"4
0h
0/
0":
b11111110111101000010010000100011 ~
0E
0q
b00000000000000000000000001111000 4
0!
0i
0n
00
0X
0"&
#351
1i
1"&
10
1E
1h
1!
1"4
1n
1":
1X
1/
1q
#356
0"4
0h
0/
0":
0E
0q
b00000000000000000000000001111100 4
0!
b00000000000000000000000000010011 ~
0i
0n
00
0X
0"&
#361
1i
1"&
10
1E
1h
1!
1"4
1n
1":
1X
1/
1q
#366
0"4
0h
0/
0!
0":
0i
0n
0E
00
0X
0"&
0q
b00000000000000000000000010000000 4
#371
1i
1"&
10
1E
1h
1!
1"4
1n
1":
1X
1/
1q
#376
0"4
0h
b00000000000000000000000010000100 4
0/
0!
0":
0i
0n
0E
00
0X
0"&
0q
#381
1i
1"&
10
1E
1h
1!
1"4
1n
1":
1X
1/
1q
#386
0"4
b00000000000000000000000010001000 4
0h
0/
0!
0":
0i
0n
0E
00
0X
0"&
0q
#391
1i
1"&
10
1E
1h
1!
1"4
1n
1":
1X
1/
1q
#396
0"4
0h
0/
0":
0E
0q
0!
b00000000000000000000000010001100 4
0i
0n
00
0X
0"&
b11111110110001000010010110000011 ~
#401
1i
1"&
10
1E
1h
1!
1"4
1n
1":
1X
1/
1q
#406
0"4
0h
0/
b00000000000000000000000010010000 4
0":
0E
0q
0!
b00000000000000000000000000010011 ~
0i
0n
00
0X
0"&
#411
1i
1"&
10
1E
1h
1!
1"4
1n
1":
1X
1/
1q
#416
0"4
0h
0/
b00000000000000000000000010010100 4
0!
0":
0i
0n
0E
00
0X
0"&
0q
#421
1i
1"&
10
1E
1h
1!
1"4
1n
1":
1X
1/
1q
#426
0"4
0h
0/
0!
0":
0i
0n
0E
00
0X
0"&
b00000000000000000000000010011000 4
0q
#431
1i
1"&
10
1E
1h
1!
1"4
1n
1":
1X
1/
1q
#436
0"4
0h
0/
b00000000000000000000000010011100 4
0!
0":
0i
0n
0E
00
0X
0"&
0q
#441
1i
1"&
10
1E
1h
1!
1"4
1n
1":
1X
1/
1q
#446
0"4
0h
0/
b00000000000000000000000010100000 4
0":
0E
0q
0!
0i
0n
00
0X
0"&
b00000000101100000000010100010011 ~
#451
1i
1"&
10
1E
1h
1!
1"4
1n
1":
1X
1/
1q
#456
0"4
0h
0/
0":
0E
0q
0!
b00000000000000000000000000010011 ~
0i
0n
00
0X
0"&
b00000000000000000000000010100100 4
#461
1i
1"&
10
1E
1h
1!
1"4
1n
1":
1X
1/
1q
#466
0"4
0h
0/
0!
0":
0i
0n
0E
00
0X
b00000000000000000000000010101000 4
0"&
0q
#471
1i
1"&
10
1E
1h
1!
1"4
1n
1":
1X
1/
1q
#476
0"4
0h
0/
b00000000000000000000000010101100 4
0!
0":
0i
0n
0E
00
0X
0"&
0q
#481
1i
1"&
10
1E
1h
1!
1"4
1n
1":
1X
1/
1q
#486
0"4
0h
b00000000000000000000000010110000 4
0/
0!
0":
0i
0n
0E
00
0X
0"&
0q
#491
1i
1"&
10
1E
1h
1!
1"4
1n
1":
1X
1/
1q
#496
0"4
0h
0/
0":
0E
0q
b01100001100000000000000011101111 ~
0!
0i
0n
00
0X
0"&
b00000000000000000000000010110100 4
#501
1i
1"&
10
1E
1h
1!
1"4
1n
1":
1X
1/
1q
#506
0"4
0h
0/
0":
0E
0q
b00000000000000000000000010111000 4
0!
b00000000000000000000000000010011 ~
0i
0n
00
0X
0"&
#511
1i
1"&
10
1E
1h
1!
1"4
1n
1":
1X
1/
1q
#516
0"4
0h
0/
0!
0":
0i
0n
0E
00
0X
b00000000000000000000000010111100 4
0"&
0q
#521
1i
1"&
10
1E
1h
1!
1"4
1n
1":
1X
1/
1q
#526
0"4
0h
0/
0!
0":
b00000000000000000000000011000000 4
0i
0n
0E
00
0X
0"&
0q
#531
1i
1"&
10
1E
1h
1!
1"4
1n
1":
1X
1/
1q
#536
0"4
0h
0/
0!
0":
0i
0n
0E
00
0X
0"&
0q
b00000000000000000000000011000100 4
#541
1i
1"&
10
1E
1h
1!
1"4
1n
1":
1X
1/
1q
#546
0"4
0h
0/
b00000000000000000000000011001000 4
0":
0E
b11111110100001000010010110000011 ~
0q
0!
0i
0n
00
0X
0"&
#551
1i
1"&
10
1E
1h
1!
1"4
1n
1":
1X
1/
1q
#556
0"4
0h
0/
b00000000000000000000000011001100 4
0":
0E
0q
0!
b00000000000000000000000000010011 ~
0i
0n
00
0X
0"&
#561
1i
1"&
10
1E
1h
1!
1"4
1n
1":
1X
1/
1q
#566
0"4
0h
0/
0!
0":
b00000000000000000000000011010000 4
0i
0n
0E
00
0X
0"&
0q
#571
1i
1"&
10
1E
1h
1!
1"4
1n
1":
1X
1/
1q
#576
0"4
0h
b00000000000000000000000011010100 4
0/
0!
0":
0i
0n
0E
00
0X
0"&
0q
#581
1i
1"&
10
1E
1h
1!
1"4
1n
1":
1X
1/
1q
#586
0"4
0h
0/
0!
0":
0i
0n
0E
00
0X
0"&
b00000000000000000000000011011000 4
0q
#591
1i
1"&
10
1E
1h
1!
1"4
1n
1":
1X
1/
1q
#596
0"4
0h
b00000000000000000000000011011100 4
0/
0":
0E
0q
0!
0i
0n
00
0X
0"&
b00000000101100000000010100010011 ~
#601
1i
1"&
10
1E
1h
1!
1"4
1n
1":
1X
1/
1q
#606
0"4
0h
b00000000000000000000000011100000 4
0/
0":
0E
0q
0!
b00000000000000000000000000010011 ~
0i
0n
00
0X
0"&
#611
1i
1"&
10
1E
1h
1!
1"4
1n
1":
1X
1/
1q
#616
0"4
0h
0/
b00000000000000000000000011100100 4
0!
0":
0i
0n
0E
00
0X
0"&
0q
#621
1i
1"&
10
1E
1h
1!
1"4
1n
1":
1X
1/
1q
#626
0"4
0h
0/
0!
0":
0i
0n
0E
00
0X
0"&
0q
b00000000000000000000000011101000 4
#631
1i
1"&
10
1E
1h
1!
1"4
1n
1":
1X
1/
1q
#636
0"4
0h
0/
b00000000000000000000000011101100 4
0!
0":
0i
0n
0E
00
0X
0"&
0q
#641
1i
1"&
10
1E
1h
1!
1"4
1n
1":
1X
1/
1q
#646
0"4
0h
0/
b00000000000000000000000011110000 4
0":
0E
b01011101110000000000000011101111 ~
0q
0!
0i
0n
00
0X
0"&
#651
1i
1"&
10
1E
1h
1!
1"4
1n
1":
1X
1/
1q
#656
0"4
0h
0/
b00000000000000000000000011110100 4
0":
0E
0q
0!
b00000000000000000000000000010011 ~
0i
0n
00
0X
0"&
#661
1i
1"&
10
1E
1h
1!
1"4
1n
1":
1X
1/
1q
#666
0"4
0h
0/
0!
0":
0i
0n
0E
00
0X
b00000000000000000000000011111000 4
0"&
0q
#671
1i
1"&
10
1E
1h
1!
1"4
1n
1":
1X
1/
1q
#676
0"4
0h
0/
0!
0":
b00000000000000000000000011111100 4
0i
0n
0E
00
0X
0"&
0q
#681
1i
1"&
10
1E
1h
1!
1"4
1n
1":
1X
1/
1q
#686
0"4
0h
0/
b00000000000000000000000100000000 4
0!
0":
0i
0n
0E
00
0X
0"&
0q
#691
1i
1"&
10
1E
1h
1!
1"4
1n
1":
1X
1/
1q
#696
0"4
0h
0/
b00000000000000000000000100000100 4
0":
0E
0q
0!
0i
0n
00
0X
0"&
b11111110100001000010011000000011 ~
#701
1i
1"&
10
1E
1h
1!
1"4
1n
1":
1X
1/
1q
#706
0"4
0h
0/
0":
b00000000000000000000000100001000 4
0E
0q
0!
b00000000000000000000000000010011 ~
0i
0n
00
0X
0"&
#711
1i
1"&
10
1E
1h
1!
1"4
1n
1":
1X
1/
1q
#716
0"4
0h
0/
0!
0":
0i
0n
0E
00
0X
b00000000000000000000000100001100 4
0"&
0q
#721
1i
1"&
10
1E
1h
1!
1"4
1n
1":
1X
1/
1q
#726
0"4
0h
0/
b00000000000000000000000100010000 4
0!
0":
0i
0n
0E
00
0X
0"&
0q
#731
1i
1"&
10
1E
1h
1!
1"4
1n
1":
1X
1/
1q
#736
0"4
b00000000000000000000000100010100 4
0h
0/
0!
0":
0i
0n
0E
00
0X
0"&
0q
#741
1i
1"&
10
1E
1h
1!
1"4
1n
1":
1X
1/
1q
#746
0"4
0h
0/
0":
0E
0q
0!
0i
0n
00
0X
b00000000000000000000000100011000 4
0"&
b11111110110001000010010110000011 ~
#751
1i
1"&
10
1E
1h
1!
1"4
1n
1":
1X
1/
1q
#756
0"4
0h
0/
0":
0E
0q
0!
b00000000000000000000000100011100 4
b00000000000000000000000000010011 ~
0i
0n
00
0X
0"&
#761
1i
1"&
10
1E
1h
1!
1"4
1n
1":
1X
1/
1q
#766
0"4
0h
0/
0!
0":
0i
0n
0E
00
0X
b00000000000000000000000100100000 4
0"&
0q
#771
1i
1"&
10
1E
1h
1!
1"4
1n
1":
1X
1/
1q
#776
0"4
0h
b00000000000000000000000100100100 4
0/
0!
0":
0i
0n
0E
00
0X
0"&
0q
#781
1i
1"&
10
1E
1h
1!
1"4
1n
1":
1X
1/
1q
#786
0"4
0h
0/
0!
0":
0i
0n
0E
00
0X
0"&
b00000000000000000000000100101000 4
0q
#791
1i
1"&
10
1E
1h
1!
1"4
1n
1":
1X
1/
1q
#796
0"4
0h
b00000000101000000000010100010011 ~
0/
b00000000000000000000000100101100 4
0":
0E
0q
0!
0i
0n
00
0X
0"&
#801
1i
1"&
10
1E
1h
1!
1"4
1n
1":
1X
1/
1q
#806
0"4
0h
0/
0":
0E
0q
b00000000000000000000000100110000 4
0!
b00000000000000000000000000010011 ~
0i
0n
00
0X
0"&
#811
1i
1"&
10
1E
1h
1!
1"4
1n
1":
1X
1/
1q
#816
0"4
b00000000000000000000000100110100 4
0h
0/
0!
0":
0i
0n
0E
00
0X
0"&
0q
#821
1i
1"&
10
1E
1h
1!
1"4
1n
1":
1X
1/
1q
#826
0"4
0h
0/
0!
0":
0i
0n
0E
00
0X
b00000000000000000000000100111000 4
0"&
0q
#831
1i
1"&
10
1E
1h
1!
1"4
1n
1":
1X
1/
1q
#836
0"4
0h
0/
b00000000000000000000000100111100 4
0!
0":
0i
0n
0E
00
0X
0"&
0q
#841
1i
1"&
10
1E
1h
1!
1"4
1n
1":
1X
1/
1q
#846
0"4
0h
0/
0":
0E
0q
b00000000000000000000000101000000 4
b00001000110000000000000011101111 ~
0!
0i
0n
00
0X
0"&
#851
1i
1"&
10
1E
1h
1!
1"4
1n
1":
1X
1/
1q
#856
0"4
0h
0/
b00000000000000000000000101000100 4
0":
0E
0q
0!
b00000000000000000000000000010011 ~
0i
0n
00
0X
0"&
#861
1i
1"&
10
1E
1h
1!
1"4
1n
1":
1X
1/
1q
#866
0"4
0h
0/
0!
0":
b00000000000000000000000101001000 4
0i
0n
0E
00
0X
0"&
0q
#871
1i
1"&
10
1E
1h
1!
1"4
1n
1":
1X
1/
1q
#876
0"4
0h
0/
0!
0":
0i
0n
0E
00
0X
b00000000000000000000000101001100 4
0"&
0q
#881
1i
1"&
10
1E
1h
1!
1"4
1n
1":
1X
1/
1q
#886
0"4
0h
0/
b00000000000000000000000101010000 4
0!
0":
0i
0n
0E
00
0X
0"&
0q
#891
1i
1"&
10
1E
1h
1!
1"4
1n
1":
1X
1/
1q
#896
0"4
0h
0/
0":
b00000000000000000000000101010100 4
0E
0q
0!
0i
0n
00
0X
0"&
b00000000000000000000011110010011 ~
#901
1i
1"&
10
1E
1h
1!
1"4
1n
1":
1X
1/
1q
#906
0"4
b00000000000000000000000101011000 4
0h
0/
0":
0E
0q
0!
b00000000000000000000000000010011 ~
0i
0n
00
0X
0"&
#911
1i
1"&
10
1E
1h
1!
1"4
1n
1":
1X
1/
1q
#916
0"4
0h
0/
0!
0":
0i
0n
0E
00
0X
b00000000000000000000000101011100 4
0"&
0q
#921
1i
1"&
10
1E
1h
1!
1"4
1n
1":
1X
1/
1q
#926
0"4
0h
0/
0!
0":
0i
0n
0E
00
0X
b00000000000000000000000101100000 4
0"&
0q
#931
1i
1"&
10
1E
1h
1!
1"4
1n
1":
1X
1/
1q
#936
0"4
0h
0/
0!
0":
0i
0n
0E
00
0X
b00000000000000000000000101100100 4
0"&
0q
#941
1i
1"&
10
1E
1h
1!
1"4
1n
1":
1X
1/
1q
#946
0"4
0h
0/
0":
0E
0q
b00000000000000000000000101101000 4
0!
b00000000000001111000010100110011 ~
0i
0n
00
0X
0"&
#951
1i
1"&
10
1E
1h
1!
1"4
1n
1":
1X
1/
1q
#956
0"4
0h
0/
0":
0E
b00000000000000000000000101101100 4
0q
0!
b00000000000000000000000000010011 ~
0i
0n
00
0X
0"&
#961
1i
1"&
10
1E
1h
1!
1"4
1n
1":
1X
1/
1q
#966
0"4
0h
0/
0!
0":
b00000000000000000000000101110000 4
0i
0n
0E
00
0X
0"&
0q
#971
1i
1"&
10
1E
1h
1!
1"4
1n
1":
1X
1/
1q
#976
0"4
0h
b00000000000000000000000101110100 4
0/
0!
0":
0i
0n
0E
00
0X
0"&
0q
#981
1i
1"&
10
1E
1h
1!
1"4
1n
1":
1X
1/
1q
#986
0"4
0h
0/
0!
0":
0i
0n
0E
00
0X
0"&
0q
b00000000000000000000000101111000 4
#991
1i
1"&
10
1E
1h
1!
1"4
1n
1":
1X
1/
1q
#996
0"4
0h
0/
b00000000000000000000000101111100 4
0":
0E
0q
0!
0i
0n
00
0X
0"&
b00000001110000010010000010000011 ~
#1001
1i
1"&
10
1E
1h
1!
1"4
1n
1":
1X
1/
1q
#1006
0"4
0h
0/
0":
0E
0q
b00000000000000000000000110000000 4
0!
b00000000000000000000000000010011 ~
0i
0n
00
0X
0"&
#1011
1i
1"&
10
1E
1h
1!
1"4
1n
1":
1X
1/
1q
#1016
0"4
0h
0/
b00000000000000000000000110000100 4
0!
0":
0i
0n
0E
00
0X
0"&
0q
#1021
1i
1"&
10
1E
1h
1!
1"4
1n
1":
1X
1/
1q
#1026
0"4
0h
0/
0!
0":
0i
0n
0E
00
0X
0"&
b00000000000000000000000110001000 4
0q
#1031
1i
1"&
10
1E
1h
1!
1"4
1n
1":
1X
1/
1q
#1036
0"4
0h
0/
0!
0":
0i
0n
0E
00
0X
0"&
0q
b00000000000000000000000110001100 4
#1041
1i
1"&
10
1E
1h
1!
1"4
1n
1":
1X
1/
1q
