waveforms/naiveFib.s.vcd
$date
2022-09-20T12:43+0000
$end
$version
0.2
$end
$comment

$end
$timescale 1ns  $end
$scope module Tile $end
 $var wire 1 * io_regsWriteEnable $end
 $var wire 32 + io_regsReadData $end
 $var wire 32 4 io_IMEMAddress $end
 $var wire 1 < io_regsDeviceWriteEnable $end
 $var wire 32 I io_DMEMAddress $end
 $var wire 32 Z io_DMEMWriteData $end
 $var wire 1 ] CPU $end
 $var wire 32 _ io_regsDeviceWriteData $end
 $var wire 5 a io_regsDeviceWriteAddress $end
 $var wire 1 i clock $end
 $var wire 32 l io_currentPC $end
 $var wire 5 m io_regsAddress $end
 $var wire 1 u io_DMEMWriteEnable $end
 $var wire 32 v io_memDeviceWriteAddress $end
 $var wire 32 ~ io_IMEMWriteData $end
 $var wire 32 "! io_memDeviceWriteData $end
 $var wire 32 ") io_DMEMReadData $end
 $var wire 1 ", reset $end
 $var wire 1 "2 io_setup $end
 $var wire 1 "7 io_memDeviceWriteEnable $end
 $var wire 32 "A io_regsWriteData $end
  $scope module CPU.MEM $end
  $upscope $end
  $scope module CPU.ID.registers $end
  $upscope $end
  $scope module CPU.IF $end
  $upscope $end
  $scope module CPU.IF.IMEM $end
  $upscope $end
  $scope module CPU.MEM.DMEM $end
  $upscope $end
  $scope module CPU $end
   $var wire 1 2 testHarness_regUpdates_writeEnable $end
   $var wire 1 > ID $end
   $var wire 1 D testHarness_memUpdates_writeEnable $end
   $var wire 32 K testHarness_regUpdates_writeData $end
   $var wire 5 L testHarness_regUpdates_writeAddress $end
   $var wire 5 M testHarness_setupSignals_registerSignals_readAddress $end
   $var wire 32 P testHarness_testReadouts_registerRead $end
   $var wire 32 T testHarness_currentPC $end
   $var wire 1 W IF $end
   $var wire 32 [ testHarness_memUpdates_writeAddress $end
   $var wire 1 ^ testHarness_setupSignals_DMEMsignals_setup $end
   $var wire 32 d testHarness_testReadouts_DMEMread $end
   $var wire 32 f testHarness_setupSignals_DMEMsignals_dataIn $end
   $var wire 1 g testHarness_setupSignals_IMEMsignals_setup $end
   $var wire 1 q clock $end
   $var wire 32 s testHarness_setupSignals_DMEMsignals_dataAddress $end
   $var wire 1 x testHarness_setupSignals_registerSignals_setup $end
   $var wire 1 { MEM $end
   $var wire 1 "" testHarness_setupSignals_registerSignals_writeEnable $end
   $var wire 32 "6 testHarness_memUpdates_writeData $end
   $var wire 32 "= testHarness_setupSignals_registerSignals_writeData $end
   $var wire 1 "@ reset $end
   $var wire 1 "B testHarness_setupSignals_DMEMsignals_writeEnable $end
    $scope module MEM $end
     $var wire 1 8 DMEM $end
     $var wire 32 ; testHarness_testUpdates_writeAddress $end
     $var wire 32 U testHarness_DMEMsetup_dataAddress $end
     $var wire 1 p testHarness_testUpdates_writeEnable $end
     $var wire 1 z testHarness_DMEMsetup_writeEnable $end
     $var wire 32 } testHarness_DMEMpeek $end
     $var wire 1 "* testHarness_DMEMsetup_setup $end
     $var wire 32 "0 testHarness_testUpdates_writeData $end
     $var wire 1 "4 clock $end
     $var wire 32 "> testHarness_DMEMsetup_dataIn $end
      $scope module DMEM $end
       $var wire 32 & testHarness_testUpdates_writeData $end
       $var wire 1 ) _GEN_6 $end
       $var wire 12 - data__T_24_addr_pipe_0 $end
       $var wire 1 6 testHarness_testUpdates_writeEnable $end
       $var wire 32 : testHarness_setup_dataAddress $end
       $var wire 32 ? testHarness_testUpdates_writeAddress $end
       $var wire 32 F addressSource $end
       $var wire 32 J data $end
       $var wire 1 r testHarness_setup_writeEnable $end
       $var wire 1 t testHarness_setup_setup $end
       $var wire 1 "& clock $end
       $var wire 32 "+ testHarness_setup_dataIn $end
       $var wire 32 "9 io_dataOut $end
        $scope module data $end
          $scope module _T_26 $end
           $var wire 1 ! clk $end
           $var wire 12 B addr $end
           $var wire 32 G pipeline_data_0 $end
           $var wire 1 \ pipeline_valid_0 $end
           $var wire 32 c data $end
           $var wire 1 "# en $end
           $var wire 12 "' pipeline_addr_0 $end
           $var wire 1 "- valid $end
           $var wire 1 "< mask $end
          $upscope $end
          $scope module _T_24 $end
           $var wire 32 5 data $end
           $var wire 1 h clk $end
           $var wire 1 "% en $end
           $var wire 12 "( addr $end
          $upscope $end
        $upscope $end
      $upscope $end
    $upscope $end
    $scope module ID $end
     $var wire 1 " testHarness_registerSetup_writeEnable $end
     $var wire 32 = testHarness_registerPeek $end
     $var wire 1 C testHarness_testUpdates_writeEnable $end
     $var wire 32 H testHarness_registerSetup_writeData $end
     $var wire 5 N testHarness_testUpdates_writeAddress $end
     $var wire 5 k testHarness_registerSetup_readAddress $end
     $var wire 1 o registers $end
     $var wire 1 "3 testHarness_registerSetup_setup $end
     $var wire 32 "5 testHarness_testUpdates_writeData $end
     $var wire 1 ": clock $end
      $scope module registers $end
       $var wire 1 % testHarness_testUpdates_writeEnable $end
       $var wire 1 ' testHarness_setup_setup $end
       $var wire 32 , testHarness_testUpdates_writeData $end
       $var wire 5 . readAddress1 $end
       $var wire 1 0 clock $end
       $var wire 32 1 io_readData1 $end
       $var wire 32 3 registerFile $end
       $var wire 1 7 testHarness_setup_writeEnable $end
       $var wire 1 @ writeEnable $end
       $var wire 5 O testHarness_testUpdates_writeAddress $end
       $var wire 32 ` testHarness_setup_writeData $end
       $var wire 5 y testHarness_setup_readAddress $end
        $scope module registerFile $end
          $scope module _T_33 $end
           $var wire 1 # en $end
           $var wire 1 ( pipeline_valid_0 $end
           $var wire 1 / clk $end
           $var wire 5 S pipeline_addr_0 $end
           $var wire 1 V mask $end
           $var wire 1 e valid $end
           $var wire 5 w addr $end
           $var wire 32 "$ pipeline_data_0 $end
           $var wire 32 "8 data $end
          $upscope $end
          $scope module _T_41 $end
           $var wire 32 A data $end
           $var wire 1 R en $end
           $var wire 1 n clk $end
           $var wire 5 "1 addr $end
          $upscope $end
          $scope module _T_38 $end
           $var wire 1 E clk $end
           $var wire 1 b en $end
           $var wire 5 j addr $end
           $var wire 32 ". data $end
          $upscope $end
        $upscope $end
      $upscope $end
    $upscope $end
    $scope module IF $end
     $var wire 1 $ testHarness_IMEMsetup_setup $end
     $var wire 1 9 IMEM $end
     $var wire 32 Q PC $end
     $var wire 1 X clock $end
     $var wire 32 Y testHarness_PC $end
     $var wire 1 | reset $end
     $var wire 32 "? _GEN_0 $end
      $scope module IMEM $end
       $var wire 32 "/ testHarness_requestedAddress $end
       $var wire 32 "; io_instructionAddress $end
      $upscope $end
    $upscope $end
  $upscope $end
  $scope module CPU.ID $end
  $upscope $end
$upscope $end
$enddefinitions $end
$dumpvars
b00000000000000000000000000000000 Y
0C
0"7
1"<
0""
0X
b00000000000000000000000000000000 ">
0o
0R
b00000000000000000000000000000000 "8
b00000000000000000000000000000000 l
b00000000000000000000000000000000 :
b00000000000000000000000000000000 Q
b00000000000000000000000000000000 }
0g
b00000000000000000000000000000000 ".
b00000000000000000000000000000000 K
b00000000000000000000000000000000 `
b000000000000 "(
0"@
0D
0/
0"#
0x
0":
b00000 S
0z
b00000000000000000000000000000000 s
0]
0r
1)
b00000 j
b00000000000000000000000000000000 A
0@
0W
b00000 O
0%
b00000000000000000000000000000000 ;
b000000000000 -
b00000000000000000000000000000000 "=
b00000000000000000000000000000000 Z
0p
b00000000000000000000000000000000 T
b00000000000000000000000000000000 ?
0>
0"2
06
0!
b00000 .
b00000000000000000000000000000000 "9
0"4
b00000 y
b00000000000000000000000000000000 P
b00000000000000000000000000000000 3
0{
b00000000000000000000000000000000 "5
b00000000000000000000000000000000 J
b000000000000 "'
b00000000000000000000000000000000 "/
0"*
0b
0E
00
0(
b00000000000000000000000000000000 "+
b00000000000000000000000000000000 _
1V
0u
b00000000000000000000000000000000 [
b00000000000000000000000000000000 "6
b00000000000000000000000000000000 "!
0q
0i
b00000000000000000000000000000000 U
0"3
b00000 a
b00000 L
07
0"
09
0"-
0e
b00000000000000000000000000000000 f
b00000 "1
b00000000000000000000000000000000 I
b00000000000000000000000000000000 4
0|
b00000000000000000000000000000000 "0
b00000000000000000000000000000000 d
0"B
b00000000000000000000000000000000 G
b00000000000000000000000000000000 "A
b00000000000000000000000000000000 "$
b00000000000000000000000000000000 ,
b00000 M
0t
b00000000000000000000000000000000 ";
b00000000000000000000000000000000 &
0n
0<
0'
b00000000000000000000000000000000 =
b00000000000000000000000000000000 "?
b00000 w
08
0#
0",
02
b000000000000 B
b00000000000000000000000000000000 5
b00000000000000000000000000000000 ~
0h
b00000 m
b00000000000000000000000000000000 c
b00000000000000000000000000000000 ")
b00000000000000000000000000000000 F
b00000000000000000000000000000000 1
0\
b00000000000000000000000000000000 H
0"&
0*
b00000000000000000000000000000000 +
0^
b00000 k
b00000 N
0$
1"%
b00000000000000000000000000000000 v
$end
#0
1"@
1|
1",
#1
1!
1q
10
1i
1E
1":
1"&
1n
1h
1"4
1X
1/
#6
0h
0E
0i
0!
0":
0n
0q
00
0"4
0"&
0X
0/
#11
1!
1q
10
1i
1E
1":
1"&
1n
1h
1"4
1X
1/
#16
0h
0E
0i
0!
0":
0n
0q
00
0"4
0"&
0X
0/
#21
1!
1q
10
1i
1E
1":
1"&
1n
1h
1"4
1X
1/
#26
0h
0E
0i
0!
0":
0n
0q
00
0"4
0"&
0X
0/
#31
1!
1q
10
1i
1E
1":
1"&
1n
1h
1"4
1X
1/
#36
0h
0E
0i
0!
0":
0n
0q
00
0"4
0"&
0X
0/
#41
1!
1q
10
1i
1E
1":
1"&
1n
1h
1"4
1X
1/
#46
0h
0q
1g
1'
0"4
0"&
0X
b11111111000000010000000100010011 ~
0/
0E
0i
0!
0":
0",
1"*
1"3
0"@
0n
1^
0|
1"2
00
1t
1$
1x
#51
1!
1q
10
1i
1E
1":
1"&
1n
1h
1"4
1X
1/
#56
0h
b00000000000000000000000000010011 ~
0q
b00000000000000000000000000000100 4
0"4
0"&
0X
0/
0E
0i
0!
0":
0n
00
#61
1!
1q
10
1i
1E
1":
1"&
1n
1h
1"4
1X
1/
#66
0h
0E
0i
0!
0":
0n
0q
00
b00000000000000000000000000001000 4
0"4
0"&
0X
0/
#71
1!
1q
10
1i
1E
1":
1"&
1n
1h
1"4
1X
1/
#76
0h
0E
0i
0!
0":
0n
0q
00
0"4
0"&
0X
b00000000000000000000000000001100 4
0/
#81
1!
1q
10
1i
1E
1":
1"&
1n
1h
1"4
1X
1/
#86
0h
0E
0i
0!
0":
0n
0q
00
0"4
0"&
0X
0/
b00000000000000000000000000010000 4
#91
1!
1q
10
1i
1E
1":
1"&
1n
1h
1"4
1X
1/
#96
0h
b00000000000100010010011000100011 ~
0q
0"4
0"&
0X
0/
0E
0i
0!
0":
b00000000000000000000000000010100 4
0n
00
#101
1!
1q
10
1i
1E
1":
1"&
1n
1h
1"4
1X
1/
#106
0h
b00000000000000000000000000010011 ~
0q
0"4
0"&
0X
0/
0E
0i
0!
0":
b00000000000000000000000000011000 4
0n
00
#111
1!
1q
10
1i
1E
1":
1"&
1n
1h
1"4
1X
1/
#116
0h
0E
0i
0!
0":
0n
0q
b00000000000000000000000000011100 4
00
0"4
0"&
0X
0/
#121
1!
1q
10
1i
1E
1":
1"&
1n
1h
1"4
1X
1/
#126
0h
0E
0i
0!
0":
0n
0q
00
0"4
0"&
0X
0/
b00000000000000000000000000100000 4
#131
1!
1q
10
1i
1E
1":
1"&
1n
1h
1"4
1X
1/
#136
0h
0E
0i
0!
0":
0n
0q
b00000000000000000000000000100100 4
00
0"4
0"&
0X
0/
#141
1!
1q
10
1i
1E
1":
1"&
1n
1h
1"4
1X
1/
#146
0h
0q
0"4
b00000000000000000000000000101000 4
0"&
0X
0/
0E
0i
0!
0":
b00000000100000010010010000100011 ~
0n
00
#151
1!
1q
10
1i
1E
1":
1"&
1n
1h
1"4
1X
1/
#156
0h
b00000000000000000000000000010011 ~
0q
0"4
b00000000000000000000000000101100 4
0"&
0X
0/
0E
0i
0!
0":
0n
00
#161
1!
1q
10
1i
1E
1":
1"&
1n
1h
1"4
1X
1/
#166
0h
0E
0i
0!
0":
0n
0q
b00000000000000000000000000110000 4
00
0"4
0"&
0X
0/
#171
1!
1q
10
1i
1E
1":
1"&
1n
1h
1"4
1X
1/
#176
0h
0E
0i
0!
0":
0n
0q
00
0"4
0"&
0X
0/
b00000000000000000000000000110100 4
#181
1!
1q
10
1i
1E
1":
1"&
1n
1h
1"4
1X
1/
#186
0h
0E
0i
0!
0":
b00000000000000000000000000111000 4
0n
0q
00
0"4
0"&
0X
0/
#191
1!
1q
10
1i
1E
1":
1"&
1n
1h
1"4
1X
1/
#196
0h
0q
0"4
0"&
0X
0/
b00000000000000000000000000111100 4
0E
0i
0!
0":
0n
00
b00000001000000010000010000010011 ~
#201
1!
1q
10
1i
1E
1":
1"&
1n
1h
1"4
1X
1/
#206
0h
b00000000000000000000000000010011 ~
0q
0"4
0"&
0X
0/
0E
0i
0!
0":
b00000000000000000000000001000000 4
0n
00
#211
1!
1q
10
1i
1E
1":
1"&
1n
1h
1"4
1X
1/
#216
b00000000000000000000000001000100 4
0h
0E
0i
0!
0":
0n
0q
00
0"4
0"&
0X
0/
#221
1!
1q
10
1i
1E
1":
1"&
1n
1h
1"4
1X
1/
#226
0h
0E
0i
0!
0":
0n
0q
b00000000000000000000000001001000 4
00
0"4
0"&
0X
0/
#231
1!
1q
10
1i
1E
1":
1"&
1n
1h
1"4
1X
1/
#236
0h
0E
0i
0!
0":
b00000000000000000000000001001100 4
0n
0q
00
0"4
0"&
0X
0/
#241
1!
1q
10
1i
1E
1":
1"&
1n
1h
1"4
1X
1/
#246
0h
0q
0"4
0"&
0X
0/
0E
0i
0!
0":
0n
00
b00000000000000000000000001010000 4
b00000000011000000000010100010011 ~
#251
1!
1q
10
1i
1E
1":
1"&
1n
1h
1"4
1X
1/
#256
0h
b00000000000000000000000000010011 ~
0q
0"4
0"&
0X
0/
0E
0i
0!
0":
0n
b00000000000000000000000001010100 4
00
#261
1!
1q
10
1i
1E
1":
1"&
1n
1h
1"4
1X
1/
#266
0h
0E
0i
0!
0":
0n
0q
b00000000000000000000000001011000 4
00
0"4
0"&
0X
0/
#271
1!
1q
10
1i
1E
1":
1"&
1n
1h
1"4
1X
1/
#276
0h
0E
0i
0!
0":
0n
0q
00
b00000000000000000000000001011100 4
0"4
0"&
0X
0/
#281
1!
1q
10
1i
1E
1":
1"&
1n
1h
1"4
1X
1/
#286
0h
0E
0i
0!
0":
b00000000000000000000000001100000 4
0n
0q
00
0"4
0"&
0X
0/
#291
1!
1q
10
1i
1E
1":
1"&
1n
1h
1"4
1X
1/
#296
0h
0q
0"4
0"&
0X
0/
0E
0i
0!
0":
0n
00
b00000000000000000000000001100100 4
b00001000110000000000000011101111 ~
#301
1!
1q
10
1i
1E
1":
1"&
1n
1h
1"4
1X
1/
#306
0h
b00000000000000000000000000010011 ~
0q
0"4
0"&
0X
0/
0E
0i
0!
0":
0n
b00000000000000000000000001101000 4
00
#311
1!
1q
10
1i
1E
1":
1"&
1n
1h
1"4
1X
1/
#316
0h
0E
0i
0!
0":
0n
0q
00
0"4
0"&
0X
0/
b00000000000000000000000001101100 4
#321
1!
1q
10
1i
1E
1":
1"&
1n
1h
1"4
1X
1/
#326
0h
0E
0i
0!
0":
0n
0q
00
0"4
0"&
b00000000000000000000000001110000 4
0X
0/
#331
1!
1q
10
1i
1E
1":
1"&
1n
1h
1"4
1X
1/
#336
0h
0E
0i
0!
0":
0n
0q
00
0"4
0"&
b00000000000000000000000001110100 4
0X
0/
#341
1!
1q
10
1i
1E
1":
1"&
1n
1h
1"4
1X
1/
#346
0h
b00000000000001010000011110110011 ~
0q
0"4
0"&
0X
0/
b00000000000000000000000001111000 4
0E
0i
0!
0":
0n
00
#351
1!
1q
10
1i
1E
1":
1"&
1n
1h
1"4
1X
1/
#356
0h
b00000000000000000000000000010011 ~
0q
0"4
0"&
b00000000000000000000000001111100 4
0X
0/
0E
0i
0!
0":
0n
00
#361
1!
1q
10
1i
1E
1":
1"&
1n
1h
1"4
1X
1/
#366
0h
0E
0i
0!
0":
b00000000000000000000000010000000 4
0n
0q
00
0"4
0"&
0X
0/
#371
1!
1q
10
1i
1E
1":
1"&
1n
1h
1"4
1X
1/
#376
0h
0E
0i
0!
0":
0n
0q
b00000000000000000000000010000100 4
00
0"4
0"&
0X
0/
#381
1!
1q
10
1i
1E
1":
1"&
1n
1h
1"4
1X
1/
#386
0h
0E
0i
0!
0":
0n
0q
00
0"4
0"&
0X
0/
b00000000000000000000000010001000 4
#391
1!
1q
10
1i
1E
1":
1"&
1n
1h
1"4
1X
1/
#396
0h
0q
b00000000000001111000010100110011 ~
0"4
b00000000000000000000000010001100 4
0"&
0X
0/
0E
0i
0!
0":
0n
00
#401
1!
1q
10
1i
1E
1":
1"&
1n
1h
1"4
1X
1/
#406
0h
b00000000000000000000000000010011 ~
0q
0"4
0"&
0X
0/
0E
0i
0!
0":
b00000000000000000000000010010000 4
0n
00
#411
1!
1q
10
1i
1E
1":
1"&
1n
1h
1"4
1X
1/
#416
0h
0E
0i
0!
0":
0n
0q
00
0"4
0"&
b00000000000000000000000010010100 4
0X
0/
#421
1!
1q
10
1i
1E
1":
1"&
1n
1h
1"4
1X
1/
#426
0h
0E
0i
0!
0":
0n
0q
00
0"4
b00000000000000000000000010011000 4
0"&
0X
0/
#431
1!
1q
10
1i
1E
1":
1"&
1n
1h
1"4
1X
1/
#436
0h
0E
0i
0!
0":
0n
0q
00
0"4
0"&
0X
b00000000000000000000000010011100 4
0/
#441
1!
1q
10
1i
1E
1":
1"&
1n
1h
1"4
1X
1/
#446
0h
0q
0"4
0"&
0X
b00000000000000000000000010100000 4
0/
0E
0i
0!
0":
0n
00
b00000000110000010010000010000011 ~
#451
1!
1q
10
1i
1E
1":
1"&
1n
1h
1"4
1X
1/
#456
0h
b00000000000000000000000010100100 4
b00000000000000000000000000010011 ~
0q
0"4
0"&
0X
0/
0E
0i
0!
0":
0n
00
#461
1!
1q
10
1i
1E
1":
1"&
1n
1h
1"4
1X
1/
#466
0h
0E
0i
0!
0":
0n
0q
00
0"4
b00000000000000000000000010101000 4
0"&
0X
0/
#471
1!
1q
10
1i
1E
1":
1"&
1n
1h
1"4
1X
1/
#476
0h
0E
0i
0!
0":
0n
0q
b00000000000000000000000010101100 4
00
0"4
0"&
0X
0/
#481
1!
1q
10
1i
1E
1":
1"&
1n
1h
1"4
1X
1/
#486
0h
0E
0i
0!
0":
b00000000000000000000000010110000 4
0n
0q
00
0"4
0"&
0X
0/
#491
1!
1q
10
1i
1E
1":
1"&
1n
1h
1"4
1X
1/
#496
0h
b00000000100000010010010000000011 ~
0q
0"4
0"&
0X
0/
0E
0i
0!
0":
0n
00
b00000000000000000000000010110100 4
#501
1!
1q
10
1i
1E
1":
1"&
1n
1h
1"4
1X
1/
#506
0h
b00000000000000000000000010111000 4
b00000000000000000000000000010011 ~
0q
0"4
0"&
0X
0/
0E
0i
0!
0":
0n
00
#511
1!
1q
10
1i
1E
1":
1"&
1n
1h
1"4
1X
1/
#516
0h
0E
0i
0!
0":
0n
0q
00
0"4
0"&
0X
0/
b00000000000000000000000010111100 4
#521
1!
1q
10
1i
1E
1":
1"&
1n
1h
1"4
1X
1/
#526
0h
0E
0i
0!
0":
0n
0q
00
0"4
b00000000000000000000000011000000 4
0"&
0X
0/
#531
1!
1q
10
1i
1E
1":
1"&
1n
1h
1"4
1X
1/
#536
0h
0E
0i
0!
0":
b00000000000000000000000011000100 4
0n
0q
00
0"4
0"&
0X
0/
#541
1!
1q
10
1i
1E
1":
1"&
1n
1h
1"4
1X
1/
#546
0h
0q
0"4
0"&
0X
0/
b00000001000000010000000100010011 ~
0E
0i
0!
0":
b00000000000000000000000011001000 4
0n
00
#551
1!
1q
10
1i
1E
1":
1"&
1n
1h
1"4
1X
1/
#556
0h
b00000000000000000000000011001100 4
b00000000000000000000000000010011 ~
0q
0"4
0"&
0X
0/
0E
0i
0!
0":
0n
00
#561
1!
1q
10
1i
1E
1":
1"&
1n
1h
1"4
1X
1/
#566
0h
0E
0i
0!
0":
0n
0q
b00000000000000000000000011010000 4
00
0"4
0"&
0X
0/
#571
1!
1q
10
1i
1E
1":
1"&
1n
1h
1"4
1X
1/
#576
0h
0E
0i
0!
0":
0n
0q
00
0"4
0"&
0X
0/
b00000000000000000000000011010100 4
#581
1!
1q
10
1i
1E
1":
1"&
1n
1h
1"4
1X
1/
#586
0h
0E
0i
0!
0":
0n
0q
00
0"4
b00000000000000000000000011011000 4
0"&
0X
0/
#591
1!
1q
10
1i
1E
1":
1"&
1n
1h
1"4
1X
1/
#596
0h
0q
b00000000000000000000000011011100 4
0"4
0"&
0X
0/
0E
0i
0!
0":
0n
b00000000000000001000000001100111 ~
00
#601
1!
1q
10
1i
1E
1":
1"&
1n
1h
1"4
1X
1/
#606
0h
b00000000000000000000000000010011 ~
0q
0"4
0"&
0X
b00000000000000000000000011100000 4
0/
0E
0i
0!
0":
0n
00
#611
1!
1q
10
1i
1E
1":
1"&
1n
1h
1"4
1X
1/
#616
0h
0E
0i
0!
0":
0n
0q
b00000000000000000000000011100100 4
00
0"4
0"&
0X
0/
#621
1!
1q
10
1i
1E
1":
1"&
1n
1h
1"4
1X
1/
#626
0h
0E
0i
0!
0":
0n
0q
b00000000000000000000000011101000 4
00
0"4
0"&
0X
0/
#631
1!
1q
10
1i
1E
1":
1"&
1n
1h
1"4
1X
1/
#636
0h
0E
0i
0!
0":
0n
0q
00
0"4
0"&
0X
0/
b00000000000000000000000011101100 4
#641
1!
1q
10
1i
1E
1":
1"&
1n
1h
1"4
1X
1/
#646
0h
0q
0"4
0"&
0X
0/
0E
0i
0!
0":
b11111110000000010000000100010011 ~
0n
00
b00000000000000000000000011110000 4
#651
1!
1q
10
1i
1E
1":
1"&
1n
1h
1"4
1X
1/
#656
0h
b00000000000000000000000000010011 ~
0q
0"4
0"&
0X
0/
0E
0i
0!
0":
0n
00
b00000000000000000000000011110100 4
#661
1!
1q
10
1i
1E
1":
1"&
1n
1h
1"4
1X
1/
#666
0h
0E
0i
0!
0":
0n
0q
00
0"4
0"&
b00000000000000000000000011111000 4
0X
0/
#671
1!
1q
10
1i
1E
1":
1"&
1n
1h
1"4
1X
1/
#676
0h
0E
0i
0!
0":
0n
0q
b00000000000000000000000011111100 4
00
0"4
0"&
0X
0/
#681
1!
1q
10
1i
1E
1":
1"&
1n
1h
1"4
1X
1/
#686
0h
0E
0i
0!
0":
b00000000000000000000000100000000 4
0n
0q
00
0"4
0"&
0X
0/
#691
1!
1q
10
1i
1E
1":
1"&
1n
1h
1"4
1X
1/
#696
0h
0q
0"4
0"&
0X
0/
b00000000000100010010111000100011 ~
0E
0i
0!
0":
0n
00
b00000000000000000000000100000100 4
#701
1!
1q
10
1i
1E
1":
1"&
1n
1h
1"4
1X
1/
#706
0h
b00000000000000000000000000010011 ~
0q
0"4
0"&
0X
0/
0E
0i
0!
0":
0n
00
b00000000000000000000000100001000 4
#711
1!
1q
10
1i
1E
1":
1"&
1n
1h
1"4
1X
1/
#716
0h
0E
0i
0!
0":
0n
0q
00
0"4
0"&
0X
0/
b00000000000000000000000100001100 4
#721
1!
1q
10
1i
1E
1":
1"&
1n
1h
1"4
1X
1/
#726
0h
0E
0i
0!
0":
0n
0q
00
0"4
0"&
0X
0/
b00000000000000000000000100010000 4
#731
1!
1q
10
1i
1E
1":
1"&
1n
1h
1"4
1X
1/
#736
0h
0E
0i
0!
0":
0n
0q
b00000000000000000000000100010100 4
00
0"4
0"&
0X
0/
#741
1!
1q
10
1i
1E
1":
1"&
1n
1h
1"4
1X
1/
#746
0h
0q
0"4
0"&
0X
0/
0E
0i
0!
0":
0n
b00000000100000010010110000100011 ~
00
b00000000000000000000000100011000 4
#751
1!
1q
10
1i
1E
1":
1"&
1n
1h
1"4
1X
1/
#756
0h
b00000000000000000000000000010011 ~
0q
0"4
0"&
0X
0/
0E
0i
0!
0":
b00000000000000000000000100011100 4
0n
00
#761
1!
1q
10
1i
1E
1":
1"&
1n
1h
1"4
1X
1/
#766
0h
0E
0i
0!
0":
0n
0q
00
0"4
0"&
0X
b00000000000000000000000100100000 4
0/
#771
1!
1q
10
1i
1E
1":
1"&
1n
1h
1"4
1X
1/
#776
0h
0E
0i
0!
0":
0n
0q
00
0"4
0"&
b00000000000000000000000100100100 4
0X
0/
#781
1!
1q
10
1i
1E
1":
1"&
1n
1h
1"4
1X
1/
#786
0h
0E
0i
0!
0":
0n
0q
00
b00000000000000000000000100101000 4
0"4
0"&
0X
0/
#791
1!
1q
10
1i
1E
1":
1"&
1n
1h
1"4
1X
1/
#796
0h
0q
b00000000100100010010101000100011 ~
0"4
0"&
0X
b00000000000000000000000100101100 4
0/
0E
0i
0!
0":
0n
00
#801
1!
1q
10
1i
1E
1":
1"&
1n
1h
1"4
1X
1/
#806
0h
b00000000000000000000000000010011 ~
0q
0"4
0"&
0X
0/
b00000000000000000000000100110000 4
0E
0i
0!
0":
0n
00
#811
1!
1q
10
1i
1E
1":
1"&
1n
1h
1"4
1X
1/
#816
0h
0E
0i
0!
0":
0n
0q
00
0"4
0"&
b00000000000000000000000100110100 4
0X
0/
#821
1!
1q
10
1i
1E
1":
1"&
1n
1h
1"4
1X
1/
#826
0h
0E
0i
0!
0":
0n
0q
00
0"4
0"&
0X
0/
b00000000000000000000000100111000 4
#831
1!
1q
10
1i
1E
1":
1"&
1n
1h
1"4
1X
1/
#836
0h
0E
0i
0!
0":
0n
0q
00
0"4
b00000000000000000000000100111100 4
0"&
0X
0/
#841
1!
1q
10
1i
1E
1":
1"&
1n
1h
1"4
1X
1/
#846
0h
0q
0"4
0"&
b00000010000000010000010000010011 ~
0X
0/
0E
0i
0!
0":
0n
00
b00000000000000000000000101000000 4
#851
1!
1q
10
1i
1E
1":
1"&
1n
1h
1"4
1X
1/
#856
0h
b00000000000000000000000000010011 ~
0q
0"4
0"&
0X
0/
0E
0i
0!
0":
0n
00
b00000000000000000000000101000100 4
#861
1!
1q
10
1i
1E
1":
1"&
1n
1h
1"4
1X
1/
#866
0h
0E
0i
0!
0":
0n
0q
00
0"4
0"&
0X
0/
b00000000000000000000000101001000 4
#871
1!
1q
10
1i
1E
1":
1"&
1n
1h
1"4
1X
1/
#876
0h
0E
0i
0!
0":
0n
0q
00
0"4
0"&
0X
0/
b00000000000000000000000101001100 4
#881
1!
1q
10
1i
1E
1":
1"&
1n
1h
1"4
1X
1/
#886
0h
0E
0i
0!
0":
b00000000000000000000000101010000 4
0n
0q
00
0"4
0"&
0X
0/
#891
1!
1q
10
1i
1E
1":
1"&
1n
1h
1"4
1X
1/
#896
0h
0q
0"4
b11111110101001000010011000100011 ~
0"&
0X
0/
0E
0i
0!
0":
b00000000000000000000000101010100 4
0n
00
#901
1!
1q
10
1i
1E
1":
1"&
1n
1h
1"4
1X
1/
#906
0h
b00000000000000000000000000010011 ~
0q
0"4
0"&
0X
0/
0E
0i
0!
0":
0n
b00000000000000000000000101011000 4
00
#911
1!
1q
10
1i
1E
1":
1"&
1n
1h
1"4
1X
1/
#916
0h
0E
0i
0!
0":
0n
0q
00
b00000000000000000000000101011100 4
0"4
0"&
0X
0/
#921
1!
1q
10
1i
1E
1":
1"&
1n
1h
1"4
1X
1/
#926
0h
0E
0i
0!
0":
0n
0q
00
0"4
0"&
0X
0/
b00000000000000000000000101100000 4
#931
1!
1q
10
1i
1E
1":
1"&
1n
1h
1"4
1X
1/
#936
0h
0E
0i
0!
0":
b00000000000000000000000101100100 4
0n
0q
00
0"4
0"&
0X
0/
#941
1!
1q
10
1i
1E
1":
1"&
1n
1h
1"4
1X
1/
#946
0h
0q
0"4
0"&
b11111110110001000010011110000011 ~
0X
0/
0E
0i
0!
0":
b00000000000000000000000101101000 4
0n
00
#951
1!
1q
10
1i
1E
1":
1"&
1n
1h
1"4
1X
1/
#956
0h
b00000000000000000000000000010011 ~
0q
b00000000000000000000000101101100 4
0"4
0"&
0X
0/
0E
0i
0!
0":
0n
00
#961
1!
1q
10
1i
1E
1":
1"&
1n
1h
1"4
1X
1/
#966
0h
0E
0i
0!
0":
0n
0q
00
0"4
b00000000000000000000000101110000 4
0"&
0X
0/
#971
1!
1q
10
1i
1E
1":
1"&
1n
1h
1"4
1X
1/
#976
0h
0E
0i
0!
0":
0n
0q
00
b00000000000000000000000101110100 4
0"4
0"&
0X
0/
#981
1!
1q
10
1i
1E
1":
1"&
1n
1h
1"4
1X
1/
#986
0h
0E
0i
0!
0":
0n
0q
00
b00000000000000000000000101111000 4
0"4
0"&
0X
0/
#991
1!
1q
10
1i
1E
1":
1"&
1n
1h
1"4
1X
1/
#996
0h
b00000000000000000000000101111100 4
0q
0"4
0"&
b00000010000001111001111001100011 ~
0X
0/
0E
0i
0!
0":
0n
00
#1001
1!
1q
10
1i
1E
1":
1"&
1n
1h
1"4
1X
1/
#1006
0h
b00000000000000000000000000010011 ~
0q
0"4
0"&
0X
0/
0E
0i
0!
0":
0n
b00000000000000000000000110000000 4
00
#1011
1!
1q
10
1i
1E
1":
1"&
1n
1h
1"4
1X
1/
#1016
0h
0E
0i
0!
0":
0n
0q
00
b00000000000000000000000110000100 4
0"4
0"&
0X
0/
#1021
1!
1q
10
1i
1E
1":
1"&
1n
1h
1"4
1X
1/
#1026
0h
0E
0i
0!
0":
0n
0q
00
0"4
0"&
0X
b00000000000000000000000110001000 4
0/
#1031
1!
1q
10
1i
1E
1":
1"&
1n
1h
1"4
1X
1/
#1036
0h
0E
0i
0!
0":
0n
0q
00
0"4
0"&
0X
b00000000000000000000000110001100 4
0/
#1041
1!
1q
10
1i
1E
1":
1"&
1n
1h
1"4
1X
1/
